0.086616,0.24734,0.18214,0.13401,0.19923,0,0,0
0.17908,0.18527,0.20391,0.19402,0.18163,0.16449,0,0
0.21387,0.1422,0.2026,0.14629,0.23877,0.29055,0,0
NaN,0.10789,0.16814,0.17729,0.21366,0.17587,0,0
0.24382,0.24055,0.18026,0.31972,0.064846,0,0,0
0.13323,0.21685,0.10962,0.16765,0.10729,0,0,0
0.1594,0.3432,0.29453,0.29846,0.23232,0.23491,0.29757,0.2758
0.27981,0.21382,0.17944,0.1365,0.26686,0.24929,0,0
0.21784,0.28905,0.3116,0.2811,0.26178,0.2747,0.27476,0.26759
0.10475,0.12842,0.28773,0.27391,0.2745,0,0,0
0.098396,0.22076,0.24086,0.20489,0.21304,0.22397,0,0
0.1939,0.27202,0.24943,0.30093,0.24261,0.088022,0.19751,NaN
0.17482,0.27554,0.21996,0.22593,0.26644,0.24449,0.26104,NaN
0.11206,0.18411,0.084534,0.18008,0.17115,0,0,0
0.1636,0.14042,0.18255,0.20161,0.1739,0,0,0
0.14059,0.2463,0.25215,0.17957,0.19754,0.11308,0,0
0.21864,0.21125,0.34764,0.228,0.27836,0.15323,0.13249,0
0.068837,0.091315,0.13337,0.15561,0,0,0,0
0.19462,0.20288,0.22044,0.18722,0.19271,0.19757,0,0
0.13139,0.16927,0.13512,0.15194,0.16554,0.46285,0,0
0.060882,0.1,0.13002,0.10373,0,0,0,0
0.16263,0.11999,0.16566,0.16487,0,0,0,0
0.1099,0.16314,0.16893,0.08095,0,0,0,0
0.067724,0.22289,0.28226,0.25316,NaN,0,0,0
0.1118,0.20844,0.22748,0.16879,0.1301,0,0,0
0.18239,0.24413,0.21232,0.23581,0.24444,0.32714,0.21316,0
0.13869,0.16077,0.1347,0.33035,0.2766,0.20238,0,0
0.1653,0.11626,0.29834,0.21521,0.22313,0.14219,0,0
0.097552,0.21816,0.11954,0.14421,0.086248,0,0,0
0.093793,0.23739,0.37079,0.31491,0.10838,0,0,0
0.13872,0.12894,0.11649,0.2792,0.23834,0,0,0
0.095365,0.22655,0.30013,0.26862,0.26466,0.19457,0,0
0.12577,0.15356,0.13697,0.16085,0.12938,0,0,0
0.29726,0.20187,0.19951,0.23642,0.2732,0.26374,0.25301,0.18466
0.22492,0.23163,0.18819,0.16807,0.13429,0.18568,0,0
0.24017,0.25748,0.19963,0.15605,0.069845,0,0,0
0.11214,0.10842,0.18049,0.15577,NaN,0,0,0
0.34031,0.25854,0.22747,0.22471,0.23133,0.25661,0.21588,0
0.080437,0.1274,0.27929,0.22278,0.21887,0,0,0
0.16181,0.17343,0.25137,0.036871,0,0,0,0
0.13597,0.16423,0.24326,0.28204,0.36471,0.24569,0.2085,0
0.15304,0.21739,0.22658,0.22663,0.12904,0.29801,0,0
0.19716,0.30846,0.35502,0.22394,0.23739,0.25052,0.23975,0
0.14975,0.21108,0.18215,0.18403,0.19282,0.06713,0,0
0.14055,0.1294,0.12099,0.14947,0,0,0,0
