96,104,88,120,128,104,88,144,168,112,56,0,0,0,0,0,0
160,96,120,160,80,96,112,88,168,128,0,0,0,0,0,0,0
72,72,184,880,0,0,0,0,0,0,0,0,0,0,0,0,0
48,1160,0,0,0,0,0,0,0,0,0,0,0,0,0,0,0
8,112,128,88,112,120,88,120,72,88,104,120,48,0,0,0,0
264,360,96,96,40,48,48,48,56,40,96,16,0,0,0,0,0
160,184,128,96,96,160,168,32,96,48,40,0,0,0,0,0,0
40,176,120,272,64,144,56,120,0,0,0,0,0,0,0,0,0
136,128,96,128,136,584,0,0,0,0,0,0,0,0,0,0,0
280,184,96,96,136,168,0,0,0,0,0,0,0,0,0,0,0
72,120,152,152,712,0,0,0,0,0,0,0,0,0,0,0,0
136,144,672,0,0,0,0,0,0,0,0,0,0,0,0,0,0
72,288,40,96,176,88,8,256,0,0,0,0,0,0,0,0,0
224,56,256,56,40,80,104,200,40,64,88,0,0,0,0,0,0
88,208,264,56,96,88,112,72,0,0,0,0,0,0,0,0,0
256,232,376,0,0,0,0,0,0,0,0,0,0,0,0,0,0
72,712,88,8,0,0,0,0,0,0,0,0,0,0,0,0,0
16,248,32,232,240,128,152,112,48,0,0,0,0,0,0,0,0
48,136,144,176,136,160,160,152,96,0,0,0,0,0,0,0,0
80,176,232,40,112,160,112,88,112,96,0,0,0,0,0,0,0
152,136,120,112,144,152,104,96,96,88,8,0,0,0,0,0,0
40,176,128,152,160,120,160,144,128,0,0,0,0,0,0,0,0
144,96,968,0,0,0,0,0,0,0,0,0,0,0,0,0,0
136,136,72,104,128,136,168,120,136,72,0,0,0,0,0,0,0
96,168,160,168,176,112,136,104,88,0,0,0,0,0,0,0,0
1208,0,0,0,0,0,0,0,0,0,0,0,0,0,0,0,0
128,352,24,56,136,184,168,160,0,0,0,0,0,0,0,0,0
24,288,896,0,0,0,0,0,0,0,0,0,0,0,0,0,0
376,480,0,0,0,0,0,0,0,0,0,0,0,0,0,0,0
72,96,104,128,88,64,656,0,0,0,0,0,0,0,0,0,0
96,152,112,112,136,200,200,200,0,0,0,0,0,0,0,0,0
104,192,280,160,168,168,88,48,0,0,0,0,0,0,0,0,0
96,376,240,200,120,24,8,0,0,0,0,0,0,0,0,0,0
40,288,64,96,120,56,88,112,104,152,88,0,0,0,0,0,0
1208,0,0,0,0,0,0,0,0,0,0,0,0,0,0,0,0
808,400,0,0,0,0,0,0,0,0,0,0,0,0,0,0,0
160,280,336,104,72,16,0,0,0,0,0,0,0,0,0,0,0
168,168,168,136,120,280,32,80,0,0,0,0,0,0,0,0,0
632,64,512,0,0,0,0,0,0,0,0,0,0,0,0,0,0
152,216,272,32,240,56,240,0,0,0,0,0,0,0,0,0,0
96,104,120,144,72,120,136,72,104,136,104,0,0,0,0,0,0
48,160,320,112,64,112,184,120,88,0,0,0,0,0,0,0,0
80,56,160,80,832,0,0,0,0,0,0,0,0,0,0,0,0
104,464,184,192,112,88,64,0,0,0,0,0,0,0,0,0,0
48,168,96,256,264,96,104,16,120,40,0,0,0,0,0,0,0
24,128,248,48,40,88,128,128,64,104,72,136,0,0,0,0,0
160,184,560,112,120,16,0,0,0,0,0,0,0,0,0,0,0
104,176,248,144,104,104,112,88,128,0,0,0,0,0,0,0,0
8,464,344,216,128,24,24,0,0,0,0,0,0,0,0,0,0
40,128,144,160,96,152,88,80,144,160,16,0,0,0,0,0,0
456,752,0,0,0,0,0,0,0,0,0,0,0,0,0,0,0
56,104,168,176,104,272,120,32,152,24,0,0,0,0,0,0,0
128,240,176,240,40,136,48,152,48,0,0,0,0,0,0,0,0
400,808,0,0,0,0,0,0,0,0,0,0,0,0,0,0,0
776,432,0,0,0,0,0,0,0,0,0,0,0,0,0,0,0
48,184,160,168,136,192,144,136,40,0,0,0,0,0,0,0,0
208,392,48,192,368,0,0,0,0,0,0,0,0,0,0,0,0
104,80,136,120,144,624,0,0,0,0,0,0,0,0,0,0,0
120,152,96,112,176,112,96,216,96,32,0,0,0,0,0,0,0
720,0,0,0,0,0,0,0,0,0,0,0,0,0,0,0,0
440,376,0,0,0,0,0,0,0,0,0,0,0,0,0,0,0
240,64,488,232,0,0,0,0,0,0,0,0,0,0,0,0,0
88,120,128,616,0,0,0,0,0,0,0,0,0,0,0,0,0
40,224,288,536,0,0,0,0,0,0,0,0,0,0,0,0,0
48,136,240,72,176,144,128,120,144,0,0,0,0,0,0,0,0
16,96,208,208,152,352,0,0,0,0,0,0,0,0,0,0,0
176,104,128,184,104,144,64,112,192,0,0,0,0,0,0,0,0
120,120,152,144,192,176,40,264,0,0,0,0,0,0,0,0,0
136,152,376,152,16,112,88,112,64,0,0,0,0,0,0,0,0
32,184,104,144,144,600,0,0,0,0,0,0,0,0,0,0,0
24,128,160,104,792,0,0,0,0,0,0,0,0,0,0,0,0
96,752,352,0,0,0,0,0,0,0,0,0,0,0,0,0,0
88,104,112,160,152,128,144,128,192,0,0,0,0,0,0,0,0
176,168,280,176,112,168,128,0,0,0,0,0,0,0,0,0,0
72,48,200,216,320,0,0,0,0,0,0,0,0,0,0,0,0
16,176,168,200,168,136,176,168,0,0,0,0,0,0,0,0,0
72,104,96,64,112,136,144,168,152,160,0,0,0,0,0,0,0
72,456,176,232,0,0,0,0,0,0,0,0,0,0,0,0,0
120,216,152,216,440,0,0,0,0,0,0,0,0,0,0,0,0
528,456,128,96,0,0,0,0,0,0,0,0,0,0,0,0,0
80,128,152,160,72,112,168,208,128,0,0,0,0,0,0,0,0
56,128,112,104,152,136,256,264,0,0,0,0,0,0,0,0,0
112,104,224,168,224,208,168,0,0,0,0,0,0,0,0,0,0
56,184,88,96,64,72,80,112,120,136,80,32,64,24,0,0,0
8,160,288,40,96,56,64,80,112,152,152,0,0,0,0,0,0
16,96,64,72,56,168,192,32,24,48,48,48,104,32,96,48,64
304,256,168,368,112,0,0,0,0,0,0,0,0,0,0,0,0
8,88,960,0,0,0,0,0,0,0,0,0,0,0,0,0,0
16,184,184,88,152,96,104,96,80,88,96,24,0,0,0,0,0
144,96,176,40,16,112,56,56,48,112,40,120,112,80,0,0,0
64,320,120,104,72,8,136,384,0,0,0,0,0,0,0,0,0
176,152,584,0,0,0,0,0,0,0,0,0,0,0,0,0,0
80,808,72,248,0,0,0,0,0,0,0,0,0,0,0,0,0
184,152,200,208,328,80,56,0,0,0,0,0,0,0,0,0,0
24,144,152,64,192,88,112,128,128,96,80,0,0,0,0,0,0
80,192,160,168,256,184,168,0,0,0,0,0,0,0,0,0,0
304,144,584,0,0,0,0,0,0,0,0,0,0,0,0,0,0
32,240,72,96,112,176,168,216,96,0,0,0,0,0,0,0,0
88,88,120,120,160,632,0,0,0,0,0,0,0,0,0,0,0
216,128,112,248,320,0,0,0,0,0,0,0,0,0,0,0,0
1208,0,0,0,0,0,0,0,0,0,0,0,0,0,0,0,0
40,104,112,152,168,192,160,160,120,0,0,0,0,0,0,0,0
80,120,144,176,248,160,168,112,0,0,0,0,0,0,0,0,0
208,88,560,160,104,64,24,0,0,0,0,0,0,0,0,0,0
8,160,136,176,168,184,160,176,40,0,0,0,0,0,0,0,0
128,176,424,224,8,128,120,0,0,0,0,0,0,0,0,0,0
216,184,240,136,408,24,0,0,0,0,0,0,0,0,0,0,0
104,144,280,120,264,120,96,80,0,0,0,0,0,0,0,0,0
32,120,104,168,144,112,88,128,160,104,48,0,0,0,0,0,0
168,96,944,0,0,0,0,0,0,0,0,0,0,0,0,0,0
144,1064,0,0,0,0,0,0,0,0,0,0,0,0,0,0,0
120,136,112,160,120,560,0,0,0,0,0,0,0,0,0,0,0
16,104,216,16,64,72,56,152,72,176,112,136,16,0,0,0,0
40,152,48,112,40,104,128,232,16,80,112,88,56,0,0,0,0
224,288,696,0,0,0,0,0,0,0,0,0,0,0,0,0,0
1208,0,0,0,0,0,0,0,0,0,0,0,0,0,0,0,0
24,152,184,128,272,80,368,0,0,0,0,0,0,0,0,0,0
120,248,88,216,144,56,144,88,32,8,64,0,0,0,0,0,0
96,480,112,88,80,216,88,16,0,0,0,0,0,0,0,0,0
224,88,72,80,88,120,536,0,0,0,0,0,0,0,0,0,0
24,152,136,96,192,256,152,64,136,0,0,0,0,0,0,0,0
64,160,264,216,216,168,120,0,0,0,0,0,0,0,0,0,0
128,328,752,0,0,0,0,0,0,0,0,0,0,0,0,0,0
72,120,80,120,144,160,216,128,120,48,0,0,0,0,0,0,0
672,168,176,136,56,0,0,0,0,0,0,0,0,0,0,0,0
1208,0,0,0,0,0,0,0,0,0,0,0,0,0,0,0,0
72,160,8,24,240,104,64,56,192,288,0,0,0,0,0,0,0
80,104,256,248,128,392,0,0,0,0,0,0,0,0,0,0,0
312,272,320,136,120,48,0,0,0,0,0,0,0,0,0,0,0
432,224,120,8,8,416,0,0,0,0,0,0,0,0,0,0,0
64,368,40,208,40,120,64,200,104,0,0,0,0,0,0,0,0
1208,0,0,0,0,0,0,0,0,0,0,0,0,0,0,0,0
776,120,200,96,16,0,0,0,0,0,0,0,0,0,0,0,0
584,328,0,0,0,0,0,0,0,0,0,0,0,0,0,0,0
144,72,184,16,168,624,0,0,0,0,0,0,0,0,0,0,0
48,104,104,80,88,96,72,104,96,96,96,144,80,0,0,0,0
80,200,64,88,160,336,280,0,0,0,0,0,0,0,0,0,0
208,136,104,760,0,0,0,0,0,0,0,0,0,0,0,0,0
128,112,136,312,136,88,136,96,64,0,0,0,0,0,0,0,0
592,0,0,0,0,0,0,0,0,0,0,0,0,0,0,0,0
24,344,840,0,0,0,0,0,0,0,0,0,0,0,0,0,0
208,192,128,680,0,0,0,0,0,0,0,0,0,0,0,0,0
224,240,208,200,88,88,136,24,0,0,0,0,0,0,0,0,0
216,112,128,696,0,0,0,0,0,0,0,0,0,0,0,0,0
776,32,400,0,0,0,0,0,0,0,0,0,0,0,0,0,0
112,288,136,488,0,0,0,0,0,0,0,0,0,0,0,0,0
72,224,696,0,0,0,0,0,0,0,0,0,0,0,0,0,0
40,72,80,112,112,248,48,64,104,80,152,96,0,0,0,0,0
24,168,88,112,104,136,512,64,0,0,0,0,0,0,0,0,0
32,160,848,0,0,0,0,0,0,0,0,0,0,0,0,0,0
192,112,48,96,96,120,120,128,144,88,64,0,0,0,0,0,0
280,128,88,128,56,176,104,168,80,0,0,0,0,0,0,0,0
88,152,184,224,168,192,144,56,0,0,0,0,0,0,0,0,0
80,152,112,120,160,192,184,192,16,0,0,0,0,0,0,0,0
352,704,0,0,0,0,0,0,0,0,0,0,0,0,0,0,0
16,136,96,96,88,160,168,120,136,120,72,0,0,0,0,0,0
456,176,88,8,104,64,104,112,0,0,0,0,0,0,0,0,0
120,224,864,0,0,0,0,0,0,0,0,0,0,0,0,0,0
160,184,96,120,136,120,176,184,32,0,0,0,0,0,0,0,0
136,392,168,64,0,0,0,0,0,0,0,0,0,0,0,0,0
136,216,136,320,208,120,72,0,0,0,0,0,0,0,0,0,0
208,168,88,416,0,0,0,0,0,0,0,0,0,0,0,0,0
80,152,72,104,184,208,112,152,88,0,0,0,0,0,0,0,0
16,160,104,144,144,200,24,152,264,0,0,0,0,0,0,0,0
24,72,144,88,96,136,80,120,448,0,0,0,0,0,0,0,0
56,136,1016,0,0,0,0,0,0,0,0,0,0,0,0,0,0
152,208,256,216,24,80,96,176,0,0,0,0,0,0,0,0,0
32,280,128,184,440,144,0,0,0,0,0,0,0,0,0,0,0
304,424,168,136,176,0,0,0,0,0,0,0,0,0,0,0,0
64,152,144,408,40,112,0,0,0,0,0,0,0,0,0,0,0
56,176,208,96,24,56,176,416,0,0,0,0,0,0,0,0,0
224,400,80,152,96,48,64,72,0,0,0,0,0,0,0,0,0
184,376,120,176,48,0,0,0,0,0,0,0,0,0,0,0,0
96,144,296,144,136,56,64,152,8,112,0,0,0,0,0,0,0
144,128,192,304,168,0,0,0,0,0,0,0,0,0,0,0,0
64,80,144,152,336,136,0,0,0,0,0,0,0,0,0,0,0
48,136,296,152,80,56,88,144,104,104,0,0,0,0,0,0,0
96,120,72,128,144,128,128,136,208,48,0,0,0,0,0,0,0
160,72,208,648,0,0,0,0,0,0,0,0,0,0,0,0,0
112,1096,0,0,0,0,0,0,0,0,0,0,0,0,0,0,0
16,200,168,232,128,184,144,136,0,0,0,0,0,0,0,0,0
48,152,152,128,160,184,176,136,72,0,0,0,0,0,0,0,0
88,88,152,488,104,144,104,40,0,0,0,0,0,0,0,0,0
8,120,160,128,144,136,128,144,192,48,0,0,0,0,0,0,0
96,120,64,160,136,80,96,144,312,0,0,0,0,0,0,0,0
880,0,0,0,0,0,0,0,0,0,0,0,0,0,0,0,0
144,104,128,128,112,136,72,104,184,96,0,0,0,0,0,0,0
48,320,264,224,104,104,112,32,0,0,0,0,0,0,0,0,0
880,0,0,0,0,0,0,0,0,0,0,0,0,0,0,0,0
136,216,64,168,112,104,112,296,0,0,0,0,0,0,0,0,0
32,96,152,128,96,144,152,240,88,80,0,0,0,0,0,0,0
96,144,96,120,152,72,32,96,56,48,88,208,0,0,0,0,0
8,128,112,80,120,128,128,192,312,0,0,0,0,0,0,0,0
384,264,272,72,160,56,0,0,0,0,0,0,0,0,0,0,0
72,192,112,200,88,96,184,264,0,0,0,0,0,0,0,0,0
360,224,616,0,0,0,0,0,0,0,0,0,0,0,0,0,0
96,360,88,128,536,0,0,0,0,0,0,0,0,0,0,0,0
16,112,152,128,72,240,488,0,0,0,0,0,0,0,0,0,0
1208,0,0,0,0,0,0,0,0,0,0,0,0,0,0,0,0
408,56,352,32,96,264,0,0,0,0,0,0,0,0,0,0,0
184,1024,0,0,0,0,0,0,0,0,0,0,0,0,0,0,0
88,272,136,24,688,0,0,0,0,0,0,0,0,0,0,0,0
824,0,0,0,0,0,0,0,0,0,0,0,0,0,0,0,0
144,200,112,160,88,168,96,0,0,0,0,0,0,0,0,0,0
136,248,312,256,0,0,0,0,0,0,0,0,0,0,0,0,0
56,144,120,144,208,192,224,120,0,0,0,0,0,0,0,0,0
168,136,176,400,288,40,0,0,0,0,0,0,0,0,0,0,0
96,120,72,40,104,96,232,104,240,56,0,0,0,0,0,0,0
120,144,272,80,320,64,40,80,88,0,0,0,0,0,0,0,0
56,120,104,88,200,160,88,392,0,0,0,0,0,0,0,0,0
40,144,136,888,0,0,0,0,0,0,0,0,0,0,0,0,0
112,144,88,160,152,96,200,128,128,0,0,0,0,0,0,0,0
96,184,248,48,216,144,80,144,48,0,0,0,0,0,0,0,0
96,120,144,144,160,96,112,152,160,24,0,0,0,0,0,0,0
56,104,192,72,152,232,208,72,120,0,0,0,0,0,0,0,0
120,80,112,112,112,88,112,368,104,0,0,0,0,0,0,0,0
112,152,176,144,168,184,272,0,0,0,0,0,0,0,0,0,0
24,216,112,856,0,0,0,0,0,0,0,0,0,0,0,0,0
224,112,208,312,232,120,0,0,0,0,0,0,0,0,0,0,0
88,160,168,112,192,96,88,120,184,0,0,0,0,0,0,0,0
40,120,152,104,696,0,0,0,0,0,0,0,0,0,0,0,0
96,192,280,160,112,368,0,0,0,0,0,0,0,0,0,0,0
8,208,792,0,0,0,0,0,0,0,0,0,0,0,0,0,0
128,216,104,104,192,176,128,160,0,0,0,0,0,0,0,0,0
16,120,280,64,72,656,0,0,0,0,0,0,0,0,0,0,0
88,144,184,152,136,160,144,104,96,0,0,0,0,0,0,0,0
104,112,88,96,184,72,176,104,72,0,0,0,0,0,0,0,0
24,184,152,176,200,152,128,136,56,0,0,0,0,0,0,0,0
48,112,88,960,0,0,0,0,0,0,0,0,0,0,0,0,0
80,120,600,112,296,0,0,0,0,0,0,0,0,0,0,0,0
1208,0,0,0,0,0,0,0,0,0,0,0,0,0,0,0,0
16,104,112,72,80,128,104,96,64,96,112,136,64,24,0,0,0
104,120,120,112,120,128,128,264,112,0,0,0,0,0,0,0,0
1048,0,0,0,0,0,0,0,0,0,0,0,0,0,0,0,0
24,152,136,184,136,96,288,128,64,0,0,0,0,0,0,0,0
64,288,136,184,88,448,0,0,0,0,0,0,0,0,0,0,0
40,216,80,176,168,120,136,80,176,16,0,0,0,0,0,0,0
16,128,152,168,120,112,128,88,128,152,16,0,0,0,0,0,0
16,96,112,128,88,72,96,72,128,120,72,80,64,64,0,0,0
96,104,128,152,144,184,104,80,128,88,0,0,0,0,0,0,0
112,248,104,336,32,96,0,0,0,0,0,0,0,0,0,0,0
184,336,344,112,80,72,0,0,0,0,0,0,0,0,0,0,0
16,136,272,160,128,96,144,136,120,0,0,0,0,0,0,0,0
56,72,152,152,120,144,184,64,112,152,0,0,0,0,0,0,0
24,48,80,104,136,104,152,232,136,152,40,0,0,0,0,0,0
72,136,128,104,160,240,152,136,80,0,0,0,0,0,0,0,0
192,176,424,168,248,0,0,0,0,0,0,0,0,0,0,0,0
56,80,120,176,152,624,0,0,0,0,0,0,0,0,0,0,0
56,120,88,944,0,0,0,0,0,0,0,0,0,0,0,0,0
112,96,136,96,152,208,152,192,64,0,0,0,0,0,0,0,0
24,240,136,40,64,72,128,112,104,168,88,32,0,0,0,0,0
8,144,176,176,128,328,72,32,144,0,0,0,0,0,0,0,0
64,88,1056,0,0,0,0,0,0,0,0,0,0,0,0,0,0
272,192,128,232,128,160,96,0,0,0,0,0,0,0,0,0,0
136,416,24,552,0,0,0,0,0,0,0,0,0,0,0,0,0
192,272,464,0,0,0,0,0,0,0,0,0,0,0,0,0,0
104,200,904,0,0,0,0,0,0,0,0,0,0,0,0,0,0
296,328,304,280,0,0,0,0,0,0,0,0,0,0,0,0,0
152,400,160,112,112,88,80,104,0,0,0,0,0,0,0,0,0
240,88,112,160,96,144,176,64,120,8,0,0,0,0,0,0,0
48,80,152,200,632,0,0,0,0,0,0,0,0,0,0,0,0
120,176,112,224,264,312,0,0,0,0,0,0,0,0,0,0,0
48,152,104,264,328,216,96,0,0,0,0,0,0,0,0,0,0
32,160,144,224,152,56,408,0,0,0,0,0,0,0,0,0,0
136,616,72,64,320,0,0,0,0,0,0,0,0,0,0,0,0
56,72,168,160,256,336,72,80,0,0,0,0,0,0,0,0,0
40,72,128,152,144,224,176,184,88,0,0,0,0,0,0,0,0
136,112,128,200,344,32,56,80,8,112,0,0,0,0,0,0,0
16,208,200,112,512,96,64,0,0,0,0,0,0,0,0,0,0
192,72,168,64,112,72,272,96,0,0,0,0,0,0,0,0,0
24,432,72,168,160,280,72,0,0,0,0,0,0,0,0,0,0
120,1008,80,0,0,0,0,0,0,0,0,0,0,0,0,0,0
8,176,96,88,512,0,0,0,0,0,0,0,0,0,0,0,0
88,144,152,120,704,0,0,0,0,0,0,0,0,0,0,0,0
72,1136,0,0,0,0,0,0,0,0,0,0,0,0,0,0,0
960,0,0,0,0,0,0,0,0,0,0,0,0,0,0,0,0
104,144,776,0,0,0,0,0,0,0,0,0,0,0,0,0,0
80,896,0,0,0,0,0,0,0,0,0,0,0,0,0,0,0
56,136,168,128,120,80,520,0,0,0,0,0,0,0,0,0,0
200,184,824,0,0,0,0,0,0,0,0,0,0,0,0,0,0
1208,0,0,0,0,0,0,0,0,0,0,0,0,0,0,0,0
8,80,1040,0,0,0,0,0,0,0,0,0,0,0,0,0,0
64,208,144,792,0,0,0,0,0,0,0,0,0,0,0,0,0
104,152,232,176,184,176,112,72,0,0,0,0,0,0,0,0,0
8,88,120,120,80,88,704,0,0,0,0,0,0,0,0,0,0
984,0,0,0,0,0,0,0,0,0,0,0,0,0,0,0,0
128,120,144,160,120,128,96,104,144,64,0,0,0,0,0,0,0
56,96,104,136,160,120,120,80,96,136,104,0,0,0,0,0,0
128,144,80,128,128,152,136,96,136,80,0,0,0,0,0,0,0
128,192,80,336,392,0,0,0,0,0,0,0,0,0,0,0,0
176,88,168,152,144,160,200,120,0,0,0,0,0,0,0,0,0
40,304,744,0,0,0,0,0,0,0,0,0,0,0,0,0,0
72,176,152,144,176,136,152,144,56,0,0,0,0,0,0,0,0
8,72,80,160,128,144,88,168,360,0,0,0,0,0,0,0,0
40,112,96,112,848,0,0,0,0,0,0,0,0,0,0,0,0
24,184,488,64,232,0,0,0,0,0,0,0,0,0,0,0,0
168,24,168,152,296,208,160,32,0,0,0,0,0,0,0,0,0
256,880,8,0,0,0,0,0,0,0,0,0,0,0,0,0,0
24,144,192,144,120,176,176,144,88,0,0,0,0,0,0,0,0
56,112,216,824,0,0,0,0,0,0,0,0,0,0,0,0,0
1208,0,0,0,0,0,0,0,0,0,0,0,0,0,0,0,0
160,120,88,184,104,552,0,0,0,0,0,0,0,0,0,0,0
64,160,184,168,168,152,216,64,32,0,0,0,0,0,0,0,0
1208,0,0,0,0,0,0,0,0,0,0,0,0,0,0,0,0
192,312,136,272,64,72,88,72,0,0,0,0,0,0,0,0,0
32,128,240,144,8,48,128,184,120,32,120,24,0,0,0,0,0
152,200,24,152,96,152,112,96,112,112,0,0,0,0,0,0,0
136,144,160,96,192,160,152,168,0,0,0,0,0,0,0,0,0
368,176,200,232,96,128,8,0,0,0,0,0,0,0,0,0,0
632,144,432,0,0,0,0,0,0,0,0,0,0,0,0,0,0
64,200,168,96,152,96,120,152,32,128,0,0,0,0,0,0,0
64,288,176,88,136,96,288,72,0,0,0,0,0,0,0,0,0
152,256,800,0,0,0,0,0,0,0,0,0,0,0,0,0,0
160,152,488,128,56,224,0,0,0,0,0,0,0,0,0,0,0
480,120,64,48,40,456,0,0,0,0,0,0,0,0,0,0,0
920,0,0,0,0,0,0,0,0,0,0,0,0,0,0,0,0
120,120,128,128,104,192,192,184,40,0,0,0,0,0,0,0,0
80,120,136,144,136,304,72,48,48,120,0,0,0,0,0,0,0
304,304,264,200,136,0,0,0,0,0,0,0,0,0,0,0,0
112,176,136,544,0,0,0,0,0,0,0,0,0,0,0,0,0
56,288,368,48,40,96,0,0,0,0,0,0,0,0,0,0,0
24,208,168,104,208,280,216,0,0,0,0,0,0,0,0,0,0
72,136,72,792,0,0,0,0,0,0,0,0,0,0,0,0,0
32,168,1008,0,0,0,0,0,0,0,0,0,0,0,0,0,0
8,168,136,208,128,128,120,88,104,120,0,0,0,0,0,0,0
48,240,248,672,0,0,0,0,0,0,0,0,0,0,0,0,0
88,72,168,120,152,128,144,96,144,96,0,0,0,0,0,0,0
376,224,232,200,176,0,0,0,0,0,0,0,0,0,0,0,0
168,160,296,184,64,96,0,0,0,0,0,0,0,0,0,0,0
32,112,152,248,88,248,64,264,0,0,0,0,0,0,0,0,0
24,120,168,160,160,176,80,48,80,192,0,0,0,0,0,0,0
128,872,208,0,0,0,0,0,0,0,0,0,0,0,0,0,0
56,64,240,200,168,224,88,0,0,0,0,0,0,0,0,0,0
136,1072,0,0,0,0,0,0,0,0,0,0,0,0,0,0,0
232,976,0,0,0,0,0,0,0,0,0,0,0,0,0,0,0
1208,0,0,0,0,0,0,0,0,0,0,0,0,0,0,0,0
1168,0,0,0,0,0,0,0,0,0,0,0,0,0,0,0,0
64,176,256,152,136,152,168,104,0,0,0,0,0,0,0,0,0
16,128,1064,0,0,0,0,0,0,0,0,0,0,0,0,0,0
280,296,120,512,0,0,0,0,0,0,0,0,0,0,0,0,0
64,144,152,88,104,104,80,104,160,104,104,0,0,0,0,0,0
112,280,712,0,0,0,0,0,0,0,0,0,0,0,0,0,0
104,56,112,312,136,32,80,56,128,80,112,0,0,0,0,0,0
40,128,144,176,176,176,144,224,0,0,0,0,0,0,0,0,0
88,144,80,104,192,336,64,80,64,56,0,0,0,0,0,0,0
40,208,240,168,96,80,144,144,88,0,0,0,0,0,0,0,0
56,112,136,128,176,72,136,136,160,96,0,0,0,0,0,0,0
80,120,104,96,120,152,320,216,0,0,0,0,0,0,0,0,0
24,184,144,152,200,80,72,168,176,8,0,0,0,0,0,0,0
24,256,312,120,344,152,0,0,0,0,0,0,0,0,0,0,0
112,88,160,184,80,136,96,104,144,80,24,0,0,0,0,0,0
160,72,120,32,56,128,168,56,80,144,192,0,0,0,0,0,0
536,672,0,0,0,0,0,0,0,0,0,0,0,0,0,0,0
200,176,400,48,144,0,0,0,0,0,0,0,0,0,0,0,0
56,112,160,168,160,216,192,96,48,0,0,0,0,0,0,0,0
104,128,176,192,144,176,104,184,0,0,0,0,0,0,0,0,0
32,264,96,472,344,0,0,0,0,0,0,0,0,0,0,0,0
400,584,0,0,0,0,0,0,0,0,0,0,0,0,0,0,0
224,224,464,64,208,24,0,0,0,0,0,0,0,0,0,0,0
24,104,24,16,64,104,104,104,120,544,0,0,0,0,0,0,0
72,96,144,896,0,0,0,0,0,0,0,0,0,0,0,0,0
80,232,288,608,0,0,0,0,0,0,0,0,0,0,0,0,0
1072,0,0,0,0,0,0,0,0,0,0,0,0,0,0,0,0
96,104,112,152,104,128,120,216,80,96,0,0,0,0,0,0,0
96,120,248,152,592,0,0,0,0,0,0,0,0,0,0,0,0
1160,0,0,0,0,0,0,0,0,0,0,0,0,0,0,0,0
