NaN,0.15652,0.13887,0.2399,0.20829,0.19214,0,0,0,0
0.042845,0.21288,0.13259,0.15059,NaN,0,0,0,0,0
0.075094,0.15934,0.15215,0.090275,0.12582,0.14909,0,0,0,0
0.12316,0.12241,0.094561,0.12561,0,0,0,0,0,0
NaN,0.14536,0.242,0.21685,0.17373,0.22689,0.1971,0.23561,0,0
0.16001,0.11527,0.098603,0.25114,0.1945,0.16241,0,0,0,0
0.11725,0.13766,0.16374,0.14117,0.16574,0,0,0,0,0
0.12402,0.097103,0.074051,0.089303,0,0,0,0,0,0
0.13406,0.15052,0.10411,0.047596,0,0,0,0,0,0
0.0641,0.097106,0.079796,0,0,0,0,0,0,0
0.12345,0.13646,0.16349,0.20603,0.15113,0.22709,0.19886,0,0,0
0.099902,0.14204,0.21042,0.21404,0.18867,0.13179,0,0,0,0
0.13415,0.17012,0.13311,0.15536,0.16357,0.24677,0.15841,0,0,0
0.11686,0.15682,0.060295,0,0,0,0,0,0,0
0.26001,0.18946,0.12471,0.19179,0.10051,0.11636,0,0,0,0
0.10543,0.16388,0.24205,0.098208,0,0,0,0,0,0
0.44488,0.21453,0.17123,0.12996,0.07373,0,0,0,0,0
0.046933,0.18129,0.082547,0,0,0,0,0,0,0
0.085382,0.065563,0,0,0,0,0,0,0,0
0.060117,0.094405,0.081609,0,0,0,0,0,0,0
0.087042,0.079829,0.080131,0,0,0,0,0,0,0
0.10813,0.11278,0.079504,0.012547,0,0,0,0,0,0
0.16354,0.064946,0,0,0,0,0,0,0,0
0.076085,0.090697,0.067565,0.0413,0,0,0,0,0,0
0.098116,0.11156,0.10743,0.10304,NaN,0,0,0,0,0
0.20702,0.082208,0.10576,0.15035,0.21127,0,0,0,0,0
0.10497,0.2301,0.12171,0.11901,0.1785,0,0,0,0,0
0.12306,0.19332,0.17902,0.097402,0,0,0,0,0,0
0.14387,0.1855,0.16151,0.24395,0.12429,0.2104,0.21946,0,0,0
0.23496,0.12524,0.084502,0.15076,0,0,0,0,0,0
0.10233,0.017665,0,0,0,0,0,0,0,0
0.07717,0.020228,0,0,0,0,0,0,0,0
0.20997,0.24936,0.097229,0.11376,0,0,0,0,0,0
0.15342,0.16348,0.15032,0.079162,0.26234,0.13741,0,0,0,0
0.14973,0.02794,0,0,0,0,0,0,0,0
0.058269,0.067435,0.082574,0,0,0,0,0,0,0
0.06466,0.25629,0.21218,0.23098,0.077424,0,0,0,0,0
0.2182,0.19958,0.23571,0.11787,0.1602,0.23294,0.18759,0,0,0
0.20439,0.13293,0.1045,0.15281,0.083488,0,0,0,0,0
0.1469,0.19393,0.15048,0.10636,0.16649,0.16112,0,0,0,0
0.17852,0.19881,0.14653,0.031536,0,0,0,0,0,0
0.10197,0.098053,0.10572,0.078913,0,0,0,0,0,0
0.14338,0.092581,0.005221,0,0,0,0,0,0,0
0.088623,0.06228,NaN,0,0,0,0,0,0,0
0.16028,0.093258,0.091145,0.19485,0.19071,0,0,0,0,0
0.067995,0.053744,0.029953,0,0,0,0,0,0,0
0.13016,0.11443,0.098279,0.14196,0.15988,0.17746,0,0,0,0
0.16324,0.10985,0.067749,NaN,0,0,0,0,0,0
0.1285,0.15209,0.092364,0.18063,0.18381,0.18484,0.31084,0,0,0
0.18982,0.1651,0.15041,0.13141,0.092599,0.20954,0,0,0,0
0.3755,0.18382,0.17266,0.16903,0.13532,0.15164,0.18279,0,0,0
0.11583,0.14168,0.14174,0.23477,0.20343,0.26261,0.29478,0,0,0
0.18962,0.21364,0.16621,0.13895,0.14164,0.22318,0,0,0,0
0.031458,0,0,0,0,0,0,0,0,0
0.21226,0.031507,0,0,0,0,0,0,0,0
0.14255,0.1426,0.080308,NaN,0,0,0,0,0,0
0.20051,0.18479,0.16443,0.04725,0,0,0,0,0,0
0.1375,0.099196,0.13218,0.13173,0.1371,0,0,0,0,0
0.13773,0.24718,0.16908,0.17666,0.16693,0.12032,0,0,0,0
0.16343,0.19767,0.13246,0,0,0,0,0,0,0
0.11176,0.0054807,0,0,0,0,0,0,0,0
0.21635,0.16168,0.13596,0.19896,0.18361,0.13212,0,0,0,0
0.126,0.068154,NaN,0,0,0,0,0,0,0
0.35804,0.019665,0,0,0,0,0,0,0,0
0.18459,0.099214,0.12883,0.099294,0.19919,0.26931,0,0,0,0
0.096784,0.1391,0.031654,0,0,0,0,0,0,0
0.061273,0.18385,0.16311,0.1252,0.035051,0,0,0,0,0
0.23397,0.17908,0.088432,0,0,0,0,0,0,0
NaN,0.11591,0.14643,0.15497,0.13847,0.12828,0,0,0,0
0.15986,0.11907,0.02691,0,0,0,0,0,0,0
0.11999,0.17908,0.12031,0.13089,0.11009,0,0,0,0,0
0.11187,0.1233,0.043317,0,0,0,0,0,0,0
0.13137,0.05953,NaN,0,0,0,0,0,0,0
0.14967,0.094579,0.13184,0.092614,0.14701,0,0,0,0,0
0.082002,0.12417,0.14236,0.14265,0,0,0,0,0,0
NaN,0.16144,0.13769,0.18044,0.17493,0.11547,0.16658,0,0,0
0.24912,0.26935,0.16409,0.24278,0.24398,0.11407,0.31103,0.2443,NaN,0
0.1438,0.14267,0.21711,0.20796,0.18401,0.19386,0.16317,0,0,0
0.033384,0,0,0,0,0,0,0,0,0
1.9882e-16,0.13149,0.10223,0.15253,0.14299,0,0,0,0,0
0.17026,0.19228,0.079175,0.12965,0.14211,0.18921,0,0,0,0
NaN,0.23704,0.24777,0.30364,0.21591,0.23904,0.24272,0.096554,0,0
0.1621,0.1359,0.19098,0.17761,0.12579,0.13942,0,0,0,0
0.16936,0.20778,0.11458,0.1678,0.13998,0.1989,0.25726,0,0,0
0.14432,0.17943,0.1793,0.18258,0.11492,0.15678,0,0,0,0
0.059909,0,0,0,0,0,0,0,0,0
0.034015,0,0,0,0,0,0,0,0,0
0.26828,0.18013,0.10269,0.092824,0.17877,0.15089,0,0,0,0
0.18207,0.17356,0.1584,0.12608,0.12569,NaN,0,0,0,0
0.046237,0,0,0,0,0,0,0,0,0
0.052862,0.12503,0.11701,0.14025,0.12254,0.18181,0,0,0,0
0.15744,0.1824,0.032475,0,0,0,0,0,0,0
0.093937,0.16565,0.15584,0.0039235,0,0,0,0,0,0
0.10342,0.17104,0.12662,0.11953,0.073349,0,0,0,0,0
0.11471,0.068039,0.069652,0,0,0,0,0,0,0
0.10257,0.081636,0.11365,0.16207,0.051243,0,0,0,0,0
0.17579,0.097038,0.091553,0,0,0,0,0,0,0
0.11708,0.13296,0.12519,0.16754,0.14883,0.39282,0,0,0,0
0.15134,0.22855,0.194,0.08344,0.090314,0,0,0,0,0
0.08087,0.091875,0.11554,0.13151,0.1827,0,0,0,0,0
0.12459,0.18343,0.17284,0.17441,0.14942,0.16334,0,0,0,0
0.12756,0.14131,0.18656,0.098652,0.10371,0.10264,0,0,0,0
0.1789,0.12641,0.18501,0.16492,0.12599,0.12613,0,0,0,0
0.056239,0.16637,0.19402,0.1568,0.13197,0,0,0,0,0
0.093963,0.088108,0.05241,0,0,0,0,0,0,0
0.058422,0.095064,0.05269,0,0,0,0,0,0,0
0.20381,0.03445,0,0,0,0,0,0,0,0
0.17059,0.076246,0.070541,0.063122,0,0,0,0,0,0
0.16046,0.1621,0.055005,0,0,0,0,0,0,0
0.093423,0.05889,0.18634,0.12086,0,0,0,0,0,0
0.13475,0.17191,0.11094,0.22529,0.22228,0.15499,0.19585,0.14542,NaN,0
0.164,0.18648,0.1345,0.0049376,0,0,0,0,0,0
0.17281,0.23706,0.12957,0.18829,0.13614,0.16984,0.22765,0,0,0
0.020839,0,0,0,0,0,0,0,0,0
0.068818,0.19226,0.16438,0.010767,0,0,0,0,0,0
0.13848,0.063513,0,0,0,0,0,0,0,0
0.16477,0.12176,0.22268,0.19837,0.12096,0,0,0,0,0
0.15171,0.10008,0.1305,0,0,0,0,0,0,0
0.22802,0.17652,0.16029,0.16479,0.12749,0.20439,0,0,0,0
0.13747,0.13593,0.17309,0.16956,0.13591,0.20205,0.23569,0,0,0
0.10821,0.11462,0.11225,0.10471,0,0,0,0,0,0
0.21161,0.24473,0.11331,0.24917,0.12996,0,0,0,0,0
0.11384,0.035718,0,0,0,0,0,0,0,0
0.10219,0.083428,0.1198,0.08251,0,0,0,0,0,0
0.12358,0.18634,0.15876,0.1253,0.12457,0.1981,0,0,0,0
0.23064,0.063594,0.04847,0,0,0,0,0,0,0
0.0057642,0,0,0,0,0,0,0,0,0
0.045135,0.026644,0,0,0,0,0,0,0,0
0.070239,0.015943,0,0,0,0,0,0,0,0
0.16029,0.081031,0.15671,0.13727,0.10223,0,0,0,0,0
0.10689,0.12955,NaN,0,0,0,0,0,0,0
0.10088,0.096043,0.090627,0.12451,0.087457,0,0,0,0,0
0.047421,0.096151,0.16531,0,0,0,0,0,0,0
0.10247,0.14729,0.089317,0.078977,0,0,0,0,0,0
0.15214,0.13639,0.17894,0.14439,0.19215,0.15177,0,0,0,0
0.30731,0.16079,0.16078,0.12076,0.14869,0.19634,0.18201,0,0,0
0.17702,0.10818,0.17468,0.12592,0.19562,0.1045,0,0,0,0
0.11457,0.21389,0.12582,0.15081,0.18857,0.205,0.092293,0,0,0
0.12615,0.064554,0,0,0,0,0,0,0,0
0.23538,0.10796,0.26084,0.18949,0.19531,0.22295,0.16558,0,0,0
0.1736,0.08373,0.20393,0.17386,0.085664,0,0,0,0,0
0.16166,0.14014,0.15393,0.15223,0.20204,0.18125,0,0,0,0
0.20969,0.29576,0.010416,0.10933,0.14465,NaN,0,0,0,0
0.0068177,0,0,0,0,0,0,0,0,0
0.13859,0.066459,0,0,0,0,0,0,0,0
0.18539,0.11768,0.16049,0.16567,0.17173,0.072832,0,0,0,0
0.23501,0.14851,0.18027,0.177,0.13964,0.12764,0,0,0,0
0.10885,0.066526,0.11044,0,0,0,0,0,0,0
0.099081,0.047881,0,0,0,0,0,0,0,0
0.10404,0.16107,0.11985,0.21287,0.22499,0.14645,0,0,0,0
0.096337,0.028386,0,0,0,0,0,0,0,0
0.090775,0.12452,0.17185,0.087897,0.15972,0,0,0,0,0
0.035128,0,0,0,0,0,0,0,0,0
0.13389,0.094329,0.12254,0.11533,0,0,0,0,0,0
0.0084097,0,0,0,0,0,0,0,0,0
0.26578,0.12105,0.13227,0.16774,0.11148,0.13048,0,0,0,0
0.056799,0.10602,0.026307,0,0,0,0,0,0,0
0.1037,0.12584,0.0791,0.053159,0,0,0,0,0,0
0.10782,0.13911,0.16687,0.11935,0.21222,0.17105,0.067084,0,0,0
0.10486,0.067615,0.090293,0.088164,0,0,0,0,0,0
0.078398,0.27354,0.30117,0.041083,0,0,0,0,0,0
0.10628,0.31,0.19315,0.22834,0.19816,0.28765,0.16097,0.35288,0,0
0.096294,0.1675,0.12418,0.21142,0.20246,0.18199,0,0,0,0
0.27886,0.12021,0.1779,0.11861,0.11474,0.20228,0,0,0,0
0.1808,0.15936,0.18584,0.067531,0.10099,0,0,0,0,0
0.16075,0.10254,0.14317,0.15538,0.17408,0.11189,0,0,0,0
0.10772,0.10679,0.11665,0.087979,0.1322,0,0,0,0,0
0.1403,0.13986,0.12874,0.1259,0,0,0,0,0,0
0.38146,0.14879,0.15532,0.093127,NaN,0,0,0,0,0
0.14641,0.044786,0.12581,0.13393,0,0,0,0,0,0
0.17257,0.18094,0.122,0.1547,0.14787,0.14476,0,0,0,0
0.19251,0.18189,0.057246,0,0,0,0,0,0,0
0.12631,0.068301,0.14484,0.16361,0.18134,0.14652,0,0,0,0
0.13904,0.15736,0.14937,0.095582,0.09299,0,0,0,0,0
0.17318,0.17656,0.12766,0.11743,0.083629,0,0,0,0,0
0.14958,0.11071,0.18119,0.12793,0.10857,0,0,0,0,0
0.12257,0.25357,0.17831,0.12459,0.22698,0.12488,0,0,0,0
0.13296,0.019852,0,0,0,0,0,0,0,0
0.060897,0.11386,0.073331,0,0,0,0,0,0,0
0.078077,0.10829,0.12235,NaN,0,0,0,0,0,0
0.17214,0.14208,0.026817,0,0,0,0,0,0,0
0.16097,0.11161,NaN,0,0,0,0,0,0,0
0.13722,0.042146,0,0,0,0,0,0,0,0
0.22389,0.089445,0.2079,0.12533,0.15456,0.16374,0,0,0,0
0.18323,0.19922,0.09997,0.26819,0.18837,0.081932,0,0,0,0
0.12309,0.12157,0.16425,0.18862,0.1314,0.092956,0,0,0,0
0.1466,0.14516,0.059657,0.1471,0,0,0,0,0,0
0.089773,0.019418,0,0,0,0,0,0,0,0
0.10273,0.10842,0.0030639,0,0,0,0,0,0,0
0.15496,0.10192,NaN,0,0,0,0,0,0,0
0.11501,0.11602,0.13152,0.10351,0.15518,0,0,0,0,0
0.16546,0.1973,0.1991,0.20454,0.098886,0.064205,0,0,0,0
0.26008,0.092058,0.11264,0.10042,0.12001,NaN,0,0,0,0
NaN,0.11547,0.18927,0.016181,0.1849,0.22501,0,0,0,0
0.093088,0.14327,0.10219,0.082287,0.1374,0,0,0,0,0
0.28664,0.037346,0,0,0,0,0,0,0,0
0.15945,0.10582,0.16508,0.14414,0.11756,0.18333,0,0,0,0
0.19236,0.17202,0.16465,0.17021,0.21107,0.177,0.20713,0,0,0
0.10688,0.054804,0,0,0,0,0,0,0,0
0.086394,0.033447,0,0,0,0,0,0,0,0
0.20529,0.15568,0.13182,0.13823,0.12326,0.18904,0,0,0,0
0.0082935,0,0,0,0,0,0,0,0,0
0.1335,0.12025,0.10052,0.23195,0.061316,0,0,0,0,0
0.21448,0.20793,0.15332,0.04631,0,0,0,0,0,0
0.13298,0.073249,0.1342,0.055882,0,0,0,0,0,0
0.17996,0.14016,0.099779,0.090508,0.11154,0,0,0,0,0
0.068953,0.080323,0.030061,0,0,0,0,0,0,0
0.11129,0.082758,0.11458,0.097043,0,0,0,0,0,0
0.066044,0.10596,0.097826,0.25093,0,0,0,0,0,0
0.094603,NaN,0,0,0,0,0,0,0,0
0.18049,0.11783,0.12086,0.12103,0.17074,0,0,0,0,0
0.14396,0.084434,0.20601,0.18611,0.1033,0,0,0,0,0
0.1318,0.17818,0.10493,0.21903,0.24826,0.10969,0.20995,0,0,0
0.13201,0.15908,0.024008,0.11613,0,0,0,0,0,0
0.1082,0.11889,0.1531,0.11138,0.18696,0.09351,0,0,0,0
0.20251,0.1553,0.14631,0.1723,0.10335,0,0,0,0,0
0.16698,0.083873,0.029235,0,0,0,0,0,0,0
0.19462,0.17439,0.14689,0.1569,0.11835,0,0,0,0,0
0.088153,0.18189,0.10928,0.1592,0.13381,0.16366,0,0,0,0
0.1569,0.091749,0.1576,0.12636,0.15689,0.1811,0,0,0,0
0.19297,0.12986,0.17241,0.21088,0.28304,0.26253,0.33041,0.31099,0,0
0.15515,0.14941,0.17667,0.15138,0.11697,0.12839,0,0,0,0
0.0085509,0,0,0,0,0,0,0,0,0
0.19116,0.11147,0.12682,0.11995,0.15196,0.10372,0,0,0,0
0.14736,0.1188,0.077418,0.092714,0.027536,0,0,0,0,0
0.15735,0.1083,0.10233,0.14953,0.17452,0.15455,0,0,0,0
0.14241,0.039252,0,0,0,0,0,0,0,0
0.12473,0.12541,0.090867,0.062554,0,0,0,0,0,0
0.079874,0.11246,0.18623,0.17218,0.21391,0.14558,0,0,0,0
0.12935,0.040261,0,0,0,0,0,0,0,0
0.11453,0.045287,NaN,0,0,0,0,0,0,0
0.11266,0.18294,0.1716,0.083499,0,0,0,0,0,0
NaN,0.1423,0.084701,NaN,0,0,0,0,0,0
0.2395,0.14482,0.074885,0.14763,0.13051,0,0,0,0,0
0.12832,0.12867,0.14313,0.1203,0.16316,0,0,0,0,0
NaN,0.25469,0.24779,0.18152,0.12032,0,0,0,0,0
0.13548,0.14692,0.14778,0.11847,0.17096,0.19188,0,0,0,0
0.13344,0.20674,0.22481,0.20419,0.19584,0.15206,0.17963,0,0,0
0.10898,0.0049647,0,0,0,0,0,0,0,0
0.063091,0.16186,0.1454,0.079605,0.15872,0.093341,0,0,0,0
0.18628,0.17346,0.15528,0.14518,0.12563,0.13831,0,0,0,0
NaN,0.12377,0.098153,0.26962,0.18757,0.16411,0.19003,0,0,0
0.22718,0.11166,0.14371,0.10037,0,0,0,0,0,0
0.12984,0.18539,0.16924,0.14903,0.1614,0.13354,0,0,0,0
0.17499,0.24263,0.26323,0.14964,0.25551,0.21642,0.2288,0.2347,0.31975,0
0.10323,0.11847,0.15506,0.13435,0.18061,0.17542,0,0,0,0
0.10536,0.14978,0.18239,0.13146,0.16794,0.14982,0,0,0,0
0.053646,0,0,0,0,0,0,0,0,0
0.1721,0.13925,0.0098628,0,0,0,0,0,0,0
0.055728,0.092707,0.14371,0.15107,0.11264,0.53111,0,0,0,0
0.10759,0.088547,0.20178,0.21787,0.12419,0.15373,0,0,0,0
NaN,0.21427,0.13546,0.12205,0.12509,0.1739,0.11788,0,0,0
0.11758,0.23133,0.18184,0.10165,0.12256,0,0,0,0,0
0.097788,0.048337,0,0,0,0,0,0,0,0
0.043332,0,0,0,0,0,0,0,0,0
0.19259,0.11842,0.12267,0.13917,0.19208,0.071824,0,0,0,0
0.11621,0.067189,0.16937,0.08828,0.10958,0,0,0,0,0
0.1389,0.12661,0.18274,0.21389,0.1436,0,0,0,0,0
0.24101,0.07241,0.29548,0.21547,0.12315,0.05814,0,0,0,0
0.2489,0.15803,0.1757,0.15895,0.083637,0,0,0,0,0
0.063577,0,0,0,0,0,0,0,0,0
0.12569,0.23485,0.11689,0.19819,0.19452,0.093103,NaN,0,0,0
0.14026,0.1858,0.091941,0,0,0,0,0,0,0
0.061343,0.11396,0.17001,0,0,0,0,0,0,0
0.19236,0.12709,0.14677,0.057436,0,0,0,0,0,0
0.14229,0.083888,0.16731,0.18429,0.17324,0,0,0,0,0
0.054614,0.097286,0.091004,0.25334,0,0,0,0,0,0
0.033683,0.096504,0.080584,0,0,0,0,0,0,0
0.14354,0.00096825,0,0,0,0,0,0,0,0
0.13445,0.08418,0.12312,0.12259,0.11707,0,0,0,0,0
0.067291,0.091595,0.055557,0,0,0,0,0,0,0
0.22587,0.14608,0.1053,0.12288,0.13289,NaN,0,0,0,0
0.089993,0.094662,0.15832,0.075623,0,0,0,0,0,0
0.12269,0.12168,0.093425,0,0,0,0,0,0,0
0.047456,0.084776,0.12745,0.10227,0,0,0,0,0,0
0.14639,0.074899,0.056814,0,0,0,0,0,0,0
0.17178,0.081706,0.041809,0,0,0,0,0,0,0
0.14924,0.0047676,0,0,0,0,0,0,0,0
0.16733,0.20652,0.13669,0.16846,0.20943,0.14619,NaN,0,0,0
0.26357,0.19782,0.14667,0.20234,0.13817,0.22788,0.18366,0.19337,0,0
0.014477,0,0,0,0,0,0,0,0,0
0.11969,0.10013,0.22226,0.25132,0.10544,0.076493,0,0,0,0
0.16107,0.20811,0.16659,0.17367,0.16874,0.22551,0.21875,0.12779,0,0
0.14599,0.14152,0.18354,0.16615,0.12528,0,0,0,0,0
0.029148,0,0,0,0,0,0,0,0,0
0.20391,0.1475,0.24131,0.1778,0.16361,0.21212,0.20318,NaN,0,0
0.30413,0.14145,0.11067,0.11263,0.18329,0.22702,0.26561,0,0,0
0.067512,0.060065,0.15976,0.11391,0.15582,0,0,0,0,0
0.12468,0.21591,0.19908,0.090764,0,0,0,0,0,0
0.14605,0.084737,0.14258,0.090218,0,0,0,0,0,0
0.10418,0.071009,0.12934,0.055882,0,0,0,0,0,0
0.009664,0,0,0,0,0,0,0,0,0
0.057049,NaN,0,0,0,0,0,0,0,0
0.16094,0.084491,0.13241,0.1464,0.14094,0.1557,0,0,0,0
0.1353,0.044862,0,0,0,0,0,0,0,0
0.0070486,0.087612,0.15278,0.15123,0.16094,0.14302,0.14329,0,0,0
0.091314,0.10175,0.15923,0.1421,0.14037,0.16334,0,0,0,0
0.14008,0.15313,0.28529,0.13998,0.17196,0.075534,0,0,0,0
0.075402,0.16848,0.049791,0,0,0,0,0,0,0
0.20392,0.14444,0.11999,0.11565,0,0,0,0,0,0
0.24717,0.16367,0.12709,0.24924,0.21628,0.1568,0.19115,0.27738,0,0
0.18804,0.18611,0.16241,0.16686,0.17823,0.13153,0,0,0,0
0.21548,0.15903,0.1146,0.088223,0.15831,0,0,0,0,0
0.034063,0.14605,0.073165,0.1354,0.15217,0.11548,0,0,0,0
0.10204,0.17834,0.19122,0.066198,0.10732,0,0,0,0,0
0.14654,0.12543,0.11964,0,0,0,0,0,0,0
0.16999,0.13322,0.11296,0.16597,0.13691,0.16788,0.16405,0,0,0
0.1784,0.23245,0.18402,0.14879,0.23303,0.098504,0.32516,0,0,0
0.17326,0.049037,0.11436,0.10596,0,0,0,0,0,0
0.059616,0.22791,0.093206,0,0,0,0,0,0,0
0.15602,0.035603,0.23283,0.15133,0,0,0,0,0,0
0.17386,0.09333,0.17951,0.15943,0.1281,0.19213,0.20691,0,0,0
0.14227,0.20541,0.12526,0.20648,0.20906,0.18509,0.1339,0,0,0
0.14818,0.17973,0.12666,0.063806,0,0,0,0,0,0
0.1,0.0056522,0,0,0,0,0,0,0,0
0.074823,0.11343,0.11383,0.076118,0,0,0,0,0,0
0.10919,0.13227,0.14451,0.13662,0.2051,0.076856,0,0,0,0
0.18719,0.10402,0.045687,0,0,0,0,0,0,0
0.14209,0.15105,0.11991,0.24932,0.23165,0.2082,0.17678,0,0,0
0.052024,0,0,0,0,0,0,0,0,0
0.079785,0,0,0,0,0,0,0,0,0
0.10975,0.17087,0.20081,0.32418,0.25884,0.06326,NaN,0,0,0
0.29754,0.22799,0.19999,0.10493,NaN,0,0,0,0,0
0.22897,0.15673,0.24511,0.19972,0.088232,0,0,0,0,0
0.12238,0.17311,0.087534,0.10516,NaN,0,0,0,0,0
0.12523,0.12847,0.11606,0.12421,0.0758,0,0,0,0,0
0.15926,0.066636,0.02537,0,0,0,0,0,0,0
0.23771,0.061728,0.10534,0.13358,0.040723,0,0,0,0,0
0.12251,0.068324,0.018157,0,0,0,0,0,0,0
0.13461,0.22375,0.10794,0.070682,0.11052,0,0,0,0,0
0.25553,0.16773,0.18662,0.14794,0.15451,0.22139,0.087287,0,0,0
0.22524,0.11403,0.14798,NaN,0,0,0,0,0,0
0.10608,0.064557,0.10228,0.17086,0.13629,0.19745,NaN,0,0,0
0.1309,0.17796,0.23407,0.051523,0,0,0,0,0,0
0.16867,0.12685,0.17207,0.23035,0.2432,0.058879,0,0,0,0
0.095787,0.1375,0.040721,0,0,0,0,0,0,0
0.25836,0.13014,0.24216,0.2079,0.21868,0.24597,0.22543,0,0,0
0.031939,0.0043267,0,0,0,0,0,0,0,0
0.12125,0.12643,0.13207,0.091802,0.089432,0,0,0,0,0
0.10066,0.14476,0.14073,0.18044,0.22423,0.14442,0,0,0,0
0.12933,0.15896,0.12431,0.11305,0.15777,0.11406,0,0,0,0
0.016123,0,0,0,0,0,0,0,0,0
0.1639,0.021979,0,0,0,0,0,0,0,0
0.049353,0.040506,0,0,0,0,0,0,0,0
0.15498,0.11724,0.094528,0.1525,0.061816,0,0,0,0,0
0.20257,0.088516,0.17164,0.1383,0.091434,0,0,0,0,0
0.010208,0,0,0,0,0,0,0,0,0
NaN,0.14945,0.20226,0.13863,0.10897,0.13726,0.19314,NaN,0,0
0.3103,0.23256,0.17301,0.36838,0.29021,0.19864,0.1513,0.20728,0,0
0.25089,0.1743,0.0059042,0,0,0,0,0,0,0
0.13667,0.11311,0.19146,0.15783,0.14207,0.088073,0,0,0,0
0.086627,0.070084,0.12877,0.13616,0,0,0,0,0,0
0.31271,0.18216,0.10565,0.14426,0.1708,0.17865,0.11482,0,0,0
0.16241,0.16385,0.15163,0.12202,0.15608,0,0,0,0,0
0.17601,0.14109,0.17431,0.21295,0.20915,0.24762,0.11669,0,0,0
0.2759,0.26537,0.22499,0.19184,0.16498,0.14389,0,0,0,0
0.14066,0.15958,0.095748,0.16209,0.12776,0,0,0,0,0
0.37956,0.1491,0.17114,0.24344,0.14947,0.17134,0.23126,0,0,0
0.21118,0.28017,0.21747,0.10513,0.076593,0.35181,0,0,0,0
0.12001,0.10245,0.1247,0.16813,0.076105,0,0,0,0,0
0.15606,0.10874,0.10913,0.17882,0.15072,0.23908,0,0,0,0
0.11099,0.13646,0.14592,NaN,0,0,0,0,0,0
0.13348,0.028542,0,0,0,0,0,0,0,0
0.12839,0.11288,0.089343,0.11151,0.22406,0,0,0,0,0
0.16236,0.064925,0.21144,0.22043,0.18047,0.11923,0,0,0,0
0.15968,0.10286,0.087652,0,0,0,0,0,0,0
0.098003,0.12947,0.11546,0.13735,0.091688,0,0,0,0,0
0.024112,NaN,0,0,0,0,0,0,0,0
0.16795,0.17364,0.12484,0.098416,0,0,0,0,0,0
0.17282,0.17562,0.11191,NaN,0,0,0,0,0,0
0.12515,0.055444,0.074157,0.086101,0,0,0,0,0,0
0.25699,0.17253,0.093598,0.16901,0.19342,0.19749,0,0,0,0
0.17458,0.16927,0.16899,0.19017,0.13105,0.18979,0.16341,0,0,0
0.060309,0.14667,0.1815,0.16848,0.070857,0,0,0,0,0
0.14632,0.096347,0.092874,0,0,0,0,0,0,0
0.11417,0.055095,0,0,0,0,0,0,0,0
0.17848,0.19434,0.068952,0,0,0,0,0,0,0
0.072993,0.11922,0.14269,0.10837,0,0,0,0,0,0
0.029009,0,0,0,0,0,0,0,0,0
0.094147,0.1143,0.15668,0.061363,0,0,0,0,0,0
0.22261,0.012594,0,0,0,0,0,0,0,0
0.14153,0.095054,0.08268,0.1701,0.062895,0,0,0,0,0
0.17544,0.087092,0.18339,0.19193,0.088722,0,0,0,0,0
0.20002,0.15002,0.17433,0.089904,0.17668,0.13557,0,0,0,0
0.2355,0.1986,0.24959,0.21186,0.23794,0.20823,0.4352,0.41598,0.28948,0.09564
0.057334,0,0,0,0,0,0,0,0,0
0.039452,0,0,0,0,0,0,0,0,0
0.21261,0.22935,0.11809,0.13588,0.17061,0.081901,0,0,0,0
0.24169,0.18221,0.075103,0,0,0,0,0,0,0
0.066891,0.096606,0.11326,0.14597,0,0,0,0,0,0
0.23944,0.25962,0.15853,0.18509,0.12085,0,0,0,0,0
0.14099,0.092816,0.14789,0.12117,0.1273,0,0,0,0,0
NaN,0.067798,0.11967,0.14059,0.1303,0,0,0,0,0
0.070585,0.097608,0.096827,0,0,0,0,0,0,0
0.13865,0.11036,0.16377,0.1271,0.15258,0.15021,0,0,0,0
0.14816,0.14265,0.068843,0,0,0,0,0,0,0
0.020739,0,0,0,0,0,0,0,0,0
0.26656,0.18185,0.14633,0.17146,0.19868,0.11764,NaN,0,0,0
0.10362,0.19311,0.1537,0.089239,0.020107,0,0,0,0,0
0.38181,0.234,0.2047,0.085532,NaN,0,0,0,0,0
NaN,0.16121,0.13352,0.19078,0.16301,0.14607,0.22436,0,0,0
0.022643,0,0,0,0,0,0,0,0,0
0.067853,0.12405,0.062362,0.10247,0,0,0,0,0,0
0.19682,0.17665,0.096029,0.19325,0.19989,0.19861,0,0,0,0
0.23083,0.14107,0.054444,0.071996,0,0,0,0,0,0
0.11834,0.14043,0.11725,0.11183,0.19959,0,0,0,0,0
0.15961,0.018952,0,0,0,0,0,0,0,0
0.13987,0.18139,0.11683,0.095216,0.17572,0.14807,0.11934,0,0,0
NaN,0.096827,0.083203,0.11718,0.12544,0,0,0,0,0
0.33119,0.23695,0.26131,0.24431,0.30321,0.39379,0.31495,0.27613,0.20592,NaN
0.17485,0.12894,0.18743,0.14489,0.096973,0.099399,0,0,0,0
0.13602,0.10825,0,0,0,0,0,0,0,0
0.10347,0.14465,0.2709,0.16891,0.1368,0.1794,0,0,0,0
0.17121,0.16024,0.17774,0.13831,0.10318,0.27682,0.24843,0,0,0
NaN,0.18148,0.18745,0.055393,0,0,0,0,0,0
0.10536,0.1818,0.15955,0.16701,0.12584,0.22269,0,0,0,0
0.22785,0.1294,0.12998,0.20689,0.20318,0.16351,0,0,0,0
0.18884,0.055984,0.1242,0.1176,0.039409,0,0,0,0,0
0.079338,0.076945,0.13281,0.11631,0,0,0,0,0,0
0.30801,0.10441,0.20652,0.16293,0.15883,0.1565,0.44793,0,0,0
0.20745,0.13512,0.18076,0.085968,0.27334,0.28772,0.20585,0,0,0
0.20797,0.10323,0.17095,0.11159,0.1406,0,0,0,0,0
0.11496,0.038171,0,0,0,0,0,0,0,0
NaN,0.080992,0.13191,0.090938,0.083213,0,0,0,0,0
0.066424,0.13084,0.14559,0.13515,0.11384,NaN,0,0,0,0
0.060926,0.0044247,0,0,0,0,0,0,0,0
0.050363,0.1462,0.20264,0.15716,0.17011,0.11967,0.17749,0,0,0
0.13017,0.16052,0.17426,0.13119,0.1167,0.097241,0,0,0,0
0.19673,0.1281,0.22002,0.18444,0.1664,0.12995,NaN,0,0,0
0.21099,0.065297,0,0,0,0,0,0,0,0
0.26411,0.16691,0.16151,0.1385,0.18413,0.11763,0,0,0,0
0.17277,0.1224,0.26499,0.17508,0.16623,0.13722,0,0,0,0
0.054309,0.1074,0.11922,0.1948,0.15602,0,0,0,0,0
NaN,NaN,NaN,0.19001,0.17841,0.1937,0.21062,0.15064,0.18765,0.17987
0.11619,0.052678,0,0,0,0,0,0,0,0
0.16507,0.14898,0.15465,0.14359,0.17152,0.11707,0,0,0,0
0.058741,0.03035,0,0,0,0,0,0,0,0
0.34636,0.097987,0.11868,0.024687,0,0,0,0,0,0
0.25966,0.10243,0.15196,0.10139,0.09647,0,0,0,0,0
0.13163,0.14239,0.056739,0,0,0,0,0,0,0
0.08399,0.15236,0.15369,0.22002,0.22185,0.25505,0,0,0,0
0.15373,0.12912,0.072918,0,0,0,0,0,0,0
0.19838,0.28071,0.20134,0.19645,0.22267,0.177,0.19569,0.33348,0,0
0.34027,0.26506,0.197,0.080535,0.071648,0.15149,0,0,0,0
0.14885,0.082185,0.17005,0.060374,0.1273,0,0,0,0,0
0.032416,0,0,0,0,0,0,0,0,0
0.097274,0.056589,0,0,0,0,0,0,0,0
0.15238,0.23348,0.21384,0.14816,0.075763,0.13472,0,0,0,0
