24,336,348,168,216,480,0,0,0,0
528,240,300,384,120,0,0,0,0,0
120,264,360,456,252,120,0,0,0,0
384,384,444,360,0,0,0,0,0,0
24,288,156,204,264,180,288,168,0,0
72,480,360,144,204,312,0,0,0,0
480,264,276,312,240,0,0,0,0,0
216,432,468,456,0,0,0,0,0,0
144,300,336,792,0,0,0,0,0,0
732,288,552,0,0,0,0,0,0,0
252,324,264,156,348,156,72,0,0,0
396,372,228,168,204,204,0,0,0,0
120,276,312,300,312,180,72,0,0,0
348,252,972,0,0,0,0,0,0,0
108,216,372,192,396,288,0,0,0,0
384,300,108,780,0,0,0,0,0,0
60,216,276,324,696,0,0,0,0,0
636,120,816,0,0,0,0,0,0,0
384,1188,0,0,0,0,0,0,0,0
660,396,516,0,0,0,0,0,0,0
480,492,600,0,0,0,0,0,0,0
72,420,588,492,0,0,0,0,0,0
156,1416,0,0,0,0,0,0,0,0
516,360,636,60,0,0,0,0,0,0
396,708,324,120,24,0,0,0,0,0
84,660,384,264,180,0,0,0,0,0
444,156,336,384,252,0,0,0,0,0
288,276,252,756,0,0,0,0,0,0
324,228,180,180,396,216,48,0,0,0
84,420,528,540,0,0,0,0,0,0
684,888,0,0,0,0,0,0,0,0
528,1044,0,0,0,0,0,0,0,0
276,144,504,648,0,0,0,0,0,0
96,324,276,540,144,192,0,0,0,0
60,1512,0,0,0,0,0,0,0,0
600,684,288,0,0,0,0,0,0,0
552,168,300,132,420,0,0,0,0,0
108,216,204,324,336,156,228,0,0,0
84,336,768,72,312,0,0,0,0,0
156,228,276,384,300,228,0,0,0,0
84,240,324,924,0,0,0,0,0,0
216,384,360,612,0,0,0,0,0,0
48,360,1164,0,0,0,0,0,0,0
372,1176,24,0,0,0,0,0,0,0
120,528,372,180,372,0,0,0,0,0
156,924,492,0,0,0,0,0,0,0
132,408,252,420,252,48,0,0,0,0
312,360,696,204,0,0,0,0,0,0
312,228,372,240,144,240,36,0,0,0
156,264,360,312,420,60,0,0,0,0
60,168,324,288,300,324,108,0,0,0
264,312,276,168,240,168,144,0,0,0
252,216,228,396,288,192,0,0,0,0
1572,0,0,0,0,0,0,0,0,0
96,1476,0,0,0,0,0,0,0,0
168,312,672,420,0,0,0,0,0,0
192,216,228,936,0,0,0,0,0,0
300,408,312,432,120,0,0,0,0,0
84,96,240,300,252,600,0,0,0,0
228,228,1116,0,0,0,0,0,0,0
120,1452,0,0,0,0,0,0,0,0
168,324,288,228,228,336,0,0,0,0
108,1116,348,0,0,0,0,0,0,0
36,1536,0,0,0,0,0,0,0,0
84,348,312,468,300,60,0,0,0,0
432,348,792,0,0,0,0,0,0,0
228,228,288,492,336,0,0,0,0,0
84,252,696,0,0,0,0,0,0,0
24,408,288,360,288,204,0,0,0,0
276,444,852,0,0,0,0,0,0,0
276,312,360,312,312,0,0,0,0,0
420,300,852,0,0,0,0,0,0,0
276,1056,240,0,0,0,0,0,0,0
216,516,348,408,84,0,0,0,0,0
348,360,300,564,0,0,0,0,0,0
24,300,324,240,228,384,72,0,0,0
48,168,276,168,216,324,132,216,24,0
192,336,132,204,276,204,228,0,0,0
1572,0,0,0,0,0,0,0,0,0
36,312,492,228,504,0,0,0,0,0
204,252,516,348,216,36,0,0,0,0
12,144,180,180,312,108,96,540,0,0
216,300,216,228,336,276,0,0,0,0
168,300,288,288,240,228,60,0,0,0
312,264,252,132,324,288,0,0,0,0
1572,0,0,0,0,0,0,0,0,0
1572,0,0,0,0,0,0,0,0,0
156,240,324,504,276,72,0,0,0,0
204,288,204,348,336,192,0,0,0,0
1572,0,0,0,0,0,0,0,0,0
120,324,420,276,252,180,0,0,0,0
264,288,1020,0,0,0,0,0,0,0
36,240,216,1080,0,0,0,0,0,0
108,216,288,528,432,0,0,0,0,0
240,648,684,0,0,0,0,0,0,0
504,456,312,228,72,0,0,0,0,0
168,360,1044,0,0,0,0,0,0,0
288,228,420,264,336,36,0,0,0,0
276,216,204,576,300,0,0,0,0,0
240,444,324,480,84,0,0,0,0,0
384,192,288,288,336,84,0,0,0,0
120,300,216,444,396,96,0,0,0,0
144,564,84,180,348,252,0,0,0,0
408,180,252,372,360,0,0,0,0,0
420,624,528,0,0,0,0,0,0,0
660,504,408,0,0,0,0,0,0,0
108,1464,0,0,0,0,0,0,0,0
216,624,588,144,0,0,0,0,0,0
120,264,1188,0,0,0,0,0,0,0
528,672,228,144,0,0,0,0,0,0
36,276,696,108,60,108,132,132,24,0
216,288,444,624,0,0,0,0,0,0
228,120,288,288,312,252,84,0,0,0
1572,0,0,0,0,0,0,0,0,0
348,252,288,684,0,0,0,0,0,0
216,1356,0,0,0,0,0,0,0,0
312,372,204,216,468,0,0,0,0,0
276,480,816,0,0,0,0,0,0,0
168,228,252,288,300,336,0,0,0,0
264,360,204,264,180,252,48,0,0,0
324,420,468,360,0,0,0,0,0,0
36,180,336,132,888,0,0,0,0,0
144,1428,0,0,0,0,0,0,0,0
276,684,396,216,0,0,0,0,0,0
288,252,264,300,348,120,0,0,0,0
60,636,876,0,0,0,0,0,0,0
1572,0,0,0,0,0,0,0,0,0
432,1140,0,0,0,0,0,0,0,0
660,912,0,0,0,0,0,0,0,0
348,600,228,276,120,0,0,0,0,0
564,120,888,0,0,0,0,0,0,0
84,648,480,312,48,0,0,0,0,0
1116,264,192,0,0,0,0,0,0,0
300,288,408,576,0,0,0,0,0,0
300,312,360,264,192,144,0,0,0,0
72,312,300,360,288,180,60,0,0,0
132,288,228,432,228,264,0,0,0,0
300,192,276,288,192,264,60,0,0,0
288,1284,0,0,0,0,0,0,0,0
156,372,144,288,192,216,204,0,0,0
132,864,108,144,324,0,0,0,0,0
288,396,324,252,216,96,0,0,0,0
204,228,456,408,252,24,0,0,0,0
1572,0,0,0,0,0,0,0,0,0
216,1356,0,0,0,0,0,0,0,0
180,276,264,300,216,336,0,0,0,0
192,288,288,228,324,252,0,0,0,0
444,552,576,0,0,0,0,0,0,0
456,1116,0,0,0,0,0,0,0,0
480,300,432,168,144,48,0,0,0,0
288,1284,0,0,0,0,0,0,0,0
480,228,204,552,108,0,0,0,0,0
1572,0,0,0,0,0,0,0,0,0
252,432,372,516,0,0,0,0,0,0
1572,0,0,0,0,0,0,0,0,0
60,480,252,252,456,72,0,0,0,0
276,420,876,0,0,0,0,0,0,0
288,228,492,564,0,0,0,0,0,0
180,240,264,444,108,300,36,0,0,0
216,576,492,288,0,0,0,0,0,0
420,96,144,912,0,0,0,0,0,0
276,144,168,204,288,132,252,108,0,0
420,252,300,192,204,204,0,0,0,0
96,228,300,480,324,144,0,0,0,0
324,276,312,576,84,0,0,0,0,0
168,492,204,264,276,168,0,0,0,0
456,384,240,444,48,0,0,0,0,0
336,264,456,516,0,0,0,0,0,0
60,204,312,924,72,0,0,0,0,0
240,828,396,108,0,0,0,0,0,0
228,216,336,228,264,300,0,0,0,0
96,216,1260,0,0,0,0,0,0,0
396,288,288,360,144,96,0,0,0,0
276,300,228,360,408,0,0,0,0,0
252,192,336,372,420,0,0,0,0,0
216,348,180,456,372,0,0,0,0,0
264,168,204,396,180,360,0,0,0,0
168,1404,0,0,0,0,0,0,0,0
672,360,540,0,0,0,0,0,0,0
456,612,348,156,0,0,0,0,0,0
48,396,1128,0,0,0,0,0,0,0
324,708,540,0,0,0,0,0,0,0
180,1392,0,0,0,0,0,0,0,0
120,456,144,360,288,204,0,0,0,0
216,216,504,132,192,312,0,0,0,0
120,336,276,288,336,216,0,0,0,0
264,228,1032,48,0,0,0,0,0,0
816,756,0,0,0,0,0,0,0,0
444,516,612,0,0,0,0,0,0,0
252,828,492,0,0,0,0,0,0,0
396,312,384,336,144,0,0,0,0,0
384,180,156,216,408,228,0,0,0,0
120,468,324,396,240,24,0,0,0,0
24,336,636,300,108,168,0,0,0,0
336,324,372,444,96,0,0,0,0,0
48,1524,0,0,0,0,0,0,0,0
240,324,264,300,372,72,0,0,0,0
108,252,240,336,132,252,252,0,0,0
336,1236,0,0,0,0,0,0,0,0
600,972,0,0,0,0,0,0,0,0
96,312,324,384,348,108,0,0,0,0
1572,0,0,0,0,0,0,0,0,0
336,348,468,144,276,0,0,0,0,0
144,252,372,804,0,0,0,0,0,0
204,456,384,528,0,0,0,0,0,0
144,300,420,408,300,0,0,0,0,0
588,600,384,0,0,0,0,0,0,0
168,504,372,528,0,0,0,0,0,0
684,408,408,72,0,0,0,0,0,0
648,660,0,0,0,0,0,0,0,0
216,408,420,312,216,0,0,0,0,0
228,564,264,108,408,0,0,0,0,0
84,240,408,144,204,444,48,0,0,0
264,252,840,216,0,0,0,0,0,0
360,336,228,384,192,72,0,0,0,0
144,360,264,240,564,0,0,0,0,0
240,552,780,0,0,0,0,0,0,0
132,216,240,336,648,0,0,0,0,0
264,192,336,204,324,252,0,0,0,0
168,420,288,300,288,108,0,0,0,0
48,408,288,204,204,180,108,132,0,0
300,228,228,384,384,48,0,0,0,0
1572,0,0,0,0,0,0,0,0,0
84,540,288,228,300,132,0,0,0,0
144,420,528,252,228,0,0,0,0,0
144,384,324,444,192,84,0,0,0,0
384,1188,0,0,0,0,0,0,0,0
360,336,492,384,0,0,0,0,0,0
516,384,216,240,180,36,0,0,0,0
216,1356,0,0,0,0,0,0,0,0
360,828,384,0,0,0,0,0,0,0
492,168,348,564,0,0,0,0,0,0
24,408,864,276,0,0,0,0,0,0
84,288,900,120,180,0,0,0,0,0
468,384,240,384,96,0,0,0,0,0
24,132,156,300,960,0,0,0,0,0
156,228,372,372,300,144,0,0,0,0
216,192,216,168,276,204,300,0,0,0
300,1272,0,0,0,0,0,0,0,0
288,264,300,336,264,120,0,0,0,0
144,228,288,312,384,216,0,0,0,0
24,336,408,180,180,300,144,0,0,0
84,444,276,768,0,0,0,0,0,0
372,204,240,264,288,204,0,0,0,0
60,156,180,252,228,168,216,180,132,0
252,300,288,300,276,156,0,0,0,0
228,276,228,480,252,108,0,0,0,0
1572,0,0,0,0,0,0,0,0,0
132,288,1152,0,0,0,0,0,0,0
156,696,204,264,216,36,0,0,0,0
192,432,204,180,360,204,0,0,0,0
12,168,240,324,300,276,252,0,0,0
36,264,276,312,684,0,0,0,0,0
660,912,0,0,0,0,0,0,0,0
1572,0,0,0,0,0,0,0,0,0
192,360,288,300,216,216,0,0,0,0
144,468,276,552,132,0,0,0,0,0
300,372,204,168,528,0,0,0,0,0
60,480,108,156,384,384,0,0,0,0
108,216,240,228,780,0,0,0,0,0
1572,0,0,0,0,0,0,0,0,0
96,168,288,252,276,468,24,0,0,0
408,216,948,0,0,0,0,0,0,0
1140,228,204,0,0,0,0,0,0,0
96,348,276,852,0,0,0,0,0,0
144,636,288,276,228,0,0,0,0,0
504,492,528,48,0,0,0,0,0,0
984,300,288,0,0,0,0,0,0,0
144,1428,0,0,0,0,0,0,0,0
216,492,432,384,48,0,0,0,0,0
252,516,804,0,0,0,0,0,0,0
120,360,312,396,360,24,0,0,0,0
456,384,288,444,0,0,0,0,0,0
480,420,672,0,0,0,0,0,0,0
624,516,312,120,0,0,0,0,0,0
372,588,612,0,0,0,0,0,0,0
168,492,912,0,0,0,0,0,0,0
552,1020,0,0,0,0,0,0,0,0
228,228,324,216,204,360,12,0,0,0
60,288,252,276,216,180,240,60,0,0
1572,0,0,0,0,0,0,0,0,0
240,372,132,192,492,144,0,0,0,0
120,228,204,240,216,216,204,144,0,0
108,300,240,264,660,0,0,0,0,0
1572,0,0,0,0,0,0,0,0,0
228,264,168,240,336,216,108,12,0,0
36,252,252,480,264,132,156,0,0,0
252,852,108,288,72,0,0,0,0,0
372,132,216,852,0,0,0,0,0,0
396,588,180,408,0,0,0,0,0,0
276,516,408,372,0,0,0,0,0,0
1572,0,0,0,0,0,0,0,0,0
564,1008,0,0,0,0,0,0,0,0
48,516,240,264,288,216,0,0,0,0
204,1116,0,0,0,0,0,0,0,0
36,708,336,156,120,108,108,0,0,0
384,396,192,264,252,84,0,0,0,0
336,312,144,252,348,180,0,0,0,0
252,216,1104,0,0,0,0,0,0,0
132,312,156,972,0,0,0,0,0,0
60,264,336,216,192,240,168,96,0,0
336,204,324,252,228,228,0,0,0,0
120,312,480,456,204,0,0,0,0,0
60,324,480,312,300,96,0,0,0,0
264,240,216,456,396,0,0,0,0,0
360,300,912,0,0,0,0,0,0,0
96,360,324,264,264,216,48,0,0,0
336,144,276,156,228,336,96,0,0,0
252,672,384,264,0,0,0,0,0,0
300,120,1152,0,0,0,0,0,0,0
264,1008,120,180,0,0,0,0,0,0
96,372,192,216,348,204,144,0,0,0
36,252,492,156,228,216,192,0,0,0
192,276,336,768,0,0,0,0,0,0
492,1080,0,0,0,0,0,0,0,0
528,264,324,456,0,0,0,0,0,0
36,252,276,372,204,432,0,0,0,0
96,612,864,0,0,0,0,0,0,0
180,288,444,168,180,180,132,0,0,0
1572,0,0,0,0,0,0,0,0,0
1572,0,0,0,0,0,0,0,0,0
36,336,216,144,216,600,24,0,0,0
72,216,228,360,696,0,0,0,0,0
144,288,144,264,732,0,0,0,0,0
384,264,480,420,24,0,0,0,0,0
36,360,312,408,456,0,0,0,0,0
192,660,720,0,0,0,0,0,0,0
36,924,192,360,60,0,0,0,0,0
216,924,432,0,0,0,0,0,0,0
192,204,372,612,192,0,0,0,0,0
48,372,240,288,300,204,120,0,0,0
48,408,408,708,0,0,0,0,0,0
456,156,324,144,240,228,24,0,0,0
120,276,132,1044,0,0,0,0,0,0
96,276,264,192,192,552,0,0,0,0
396,372,804,0,0,0,0,0,0,0
144,396,132,216,180,144,360,0,0,0
1152,420,0,0,0,0,0,0,0,0
132,336,228,300,576,0,0,0,0,0
468,216,336,300,132,120,0,0,0,0
60,240,384,348,300,240,0,0,0,0
1572,0,0,0,0,0,0,0,0,0
36,1536,0,0,0,0,0,0,0,0
672,900,0,0,0,0,0,0,0,0
264,468,300,276,264,0,0,0,0,0
156,396,300,348,372,0,0,0,0,0
1572,0,0,0,0,0,0,0,0,0
24,264,240,228,288,288,216,24,0,0
120,204,264,132,108,264,288,192,0,0
120,240,1212,0,0,0,0,0,0,0
288,288,216,396,144,240,0,0,0,0
312,588,288,384,0,0,0,0,0,0
48,300,204,360,180,240,240,0,0,0
324,288,204,324,432,0,0,0,0,0
240,336,252,216,180,204,144,0,0,0
36,168,204,240,240,684,0,0,0,0
312,204,540,204,312,0,0,0,0,0
72,288,276,192,264,360,120,0,0,0
204,144,216,396,552,60,0,0,0,0
228,312,312,420,300,0,0,0,0,0
204,336,384,264,240,144,0,0,0,0
324,372,264,612,0,0,0,0,0,0
168,1404,0,0,0,0,0,0,0,0
288,432,396,360,96,0,0,0,0,0
156,432,192,204,276,312,0,0,0,0
348,348,876,0,0,0,0,0,0,0
72,372,252,324,552,0,0,0,0,0
1128,444,0,0,0,0,0,0,0,0
132,228,264,948,0,0,0,0,0,0
156,288,852,276,0,0,0,0,0,0
240,624,600,108,0,0,0,0,0,0
36,312,528,264,168,264,0,0,0,0
144,276,264,168,384,204,132,0,0,0
576,276,252,216,252,0,0,0,0,0
432,336,804,0,0,0,0,0,0,0
192,1380,0,0,0,0,0,0,0,0
264,228,1080,0,0,0,0,0,0,0
552,528,216,276,0,0,0,0,0,0
1572,0,0,0,0,0,0,0,0,0
516,360,204,492,0,0,0,0,0,0
84,1488,0,0,0,0,0,0,0,0
132,564,504,228,144,0,0,0,0,0
144,780,204,96,348,0,0,0,0,0
72,288,300,360,228,324,0,0,0,0
168,168,216,180,192,228,60,84,168,108
1572,0,0,0,0,0,0,0,0,0
1572,0,0,0,0,0,0,0,0,0
168,120,288,348,444,204,0,0,0,0
144,192,1236,0,0,0,0,0,0,0
636,516,288,132,0,0,0,0,0,0
48,180,228,252,864,0,0,0,0,0
156,432,276,216,492,0,0,0,0,0
48,456,348,324,396,0,0,0,0,0
996,372,204,0,0,0,0,0,0,0
120,372,300,336,312,132,0,0,0,0
336,240,996,0,0,0,0,0,0,0
1572,0,0,0,0,0,0,0,0,0
96,228,420,168,240,396,24,0,0,0
492,144,372,396,168,0,0,0,0,0
60,180,216,984,132,0,0,0,0,0
24,300,276,312,300,252,108,0,0,0
1476,0,0,0,0,0,0,0,0,0
108,312,804,204,0,0,0,0,0,0
204,264,684,96,204,120,0,0,0,0
96,192,864,420,0,0,0,0,0,0
276,288,432,480,96,0,0,0,0,0
264,1308,0,0,0,0,0,0,0,0
60,204,360,324,216,300,108,0,0,0
24,528,276,444,300,0,0,0,0,0
36,180,156,168,204,96,72,168,192,300
132,264,228,312,504,132,0,0,0,0
240,1332,0,0,0,0,0,0,0,0
420,276,156,276,264,180,0,0,0,0
108,252,276,336,360,168,72,0,0,0
24,252,204,972,0,0,0,0,0,0
348,216,252,324,384,48,0,0,0,0
96,324,324,192,204,432,0,0,0,0
120,648,324,300,180,0,0,0,0,0
228,612,312,420,0,0,0,0,0,0
60,384,192,360,264,264,48,0,0,0
132,264,252,480,84,168,192,0,0,0
156,516,240,432,228,0,0,0,0,0
132,1440,0,0,0,0,0,0,0,0
24,468,336,528,216,0,0,0,0,0
204,312,300,372,372,12,0,0,0,0
792,780,0,0,0,0,0,0,0,0
60,324,180,300,204,300,204,0,0,0
192,204,276,300,420,180,0,0,0,0
204,312,228,216,288,300,24,0,0,0
300,1272,0,0,0,0,0,0,0,0
60,324,288,408,168,324,0,0,0,0
300,444,144,192,288,204,0,0,0,0
420,504,360,192,96,0,0,0,0,0
12,24,12,240,228,228,168,336,228,96
396,1176,0,0,0,0,0,0,0,0
288,264,300,240,228,252,0,0,0,0
1140,432,0,0,0,0,0,0,0,0
72,300,552,648,0,0,0,0,0,0
132,456,264,480,240,0,0,0,0,0
264,288,1020,0,0,0,0,0,0,0
612,216,312,216,168,48,0,0,0,0
144,300,1128,0,0,0,0,0,0,0
204,180,180,240,192,252,264,60,0,0
48,132,240,576,504,72,0,0,0,0
60,648,264,552,48,0,0,0,0,0
1572,0,0,0,0,0,0,0,0,0
552,1020,0,0,0,0,0,0,0,0
108,192,204,240,660,168,0,0,0,0
