0.45892,0.32671,0.4002,0.54442,0.60699,0.62936,0.88101,0.52718,0.51918,0.33637,0.51978,0.36407,0.18601,0,0,0,0,0,0
0.29733,0.45174,0.60149,0.33916,0.10267,0,0,0,0,0,0,0,0,0,0,0,0,0,0
0.030695,0,0,0,0,0,0,0,0,0,0,0,0,0,0,0,0,0,0
0.37374,0.40445,0.32979,0.56922,0.53308,0.64665,0.62797,0.48569,0.56326,0.7894,0.5587,0.39854,0.0090672,0,0,0,0,0,0
0.49949,0.4813,0.57659,0.056339,0,0,0,0,0,0,0,0,0,0,0,0,0,0,0
NaN,0.54978,0.73892,0.71107,0.46461,0.34823,0.6573,0.57145,0.33373,0.35089,0.37937,0.1427,0.3388,0.45109,0,0,0,0,0
0.61257,0.57182,0.57568,0.44799,0.40339,0.40762,0.53883,0.71764,0.54654,0.43426,0.45624,0.5238,0.50099,0.50572,0.468,0,0,0,0
0.57304,0.50445,0.42289,0.57867,0.65362,0.56617,0.57929,0.56462,0.5569,0.53011,0.52158,0.42527,0.68025,0.55588,0.28386,0,0,0,0
0.18252,0.28633,0.35566,0.30382,0.0779,0,0,0,0,0,0,0,0,0,0,0,0,0,0
0.63865,0.31208,0.40969,0.31288,0.29701,0.48196,0.613,0.60642,0.57373,0.58037,0.54792,0.33325,0.27773,0.14588,0,0,0,0,0
NaN,0.54465,0.64418,0.46698,0.43605,0.41723,0.45594,0.29205,0.45009,0.62361,0.54699,0.40104,0.58557,0.39172,NaN,0,0,0,0
0.11904,0.48737,0.39401,0.52649,0.47585,0.64888,0.5661,0.44966,0.31081,0.55942,0.64133,0.68058,0,0,0,0,0,0,0
0.58934,0.76797,0.4882,0.29811,0.456,0.57008,0.29228,0.62012,0.45332,0.31796,0.35269,0.62126,0.53342,0.59952,NaN,0,0,0,0
0.62056,0.031917,0,0,0,0,0,0,0,0,0,0,0,0,0,0,0,0,0
1.135e-15,0.50471,0.25576,0.62534,0.54964,0.63584,0.53592,0.70235,0.55349,0.61814,0.5125,0.56353,0.46418,0.50188,0.35064,0.30526,0,0,0
0.031025,0,0,0,0,0,0,0,0,0,0,0,0,0,0,0,0,0,0
0.28918,0.61285,0.3033,0.40831,0.51209,0.41691,0.43768,0.49902,0.39856,0.33234,0.30957,0.27313,0,0,0,0,0,0,0
0.57484,0.46944,0.59531,0.53135,NaN,0.80481,0.64837,0.6324,0.50478,0.81468,0.62364,0.38064,0.49923,0.66477,0.50463,0.22303,0.59509,0,0
0.31428,0.20203,0.47688,0.5525,0.67891,0.65419,0.33195,0.49198,0.65496,0.65572,0.84995,0.79297,0.77355,0.57664,0,0,0,0,0
0.42102,0.42622,0.039444,NaN,0,0,0,0,0,0,0,0,0,0,0,0,0,0,0
0.16501,NaN,0,0,0,0,0,0,0,0,0,0,0,0,0,0,0,0,0
0.46756,0.4134,0.67968,0.4261,0.73769,0.63524,0.53262,0.60426,0.62688,0.29616,0.37934,0.45201,0.28638,0.48538,0.53186,0,0,0,0
0.3226,0.30087,0.45664,0.49093,0.55814,0.6279,0.41708,0.50232,0.48366,0.53495,0.42943,0.36326,0.4535,0.33586,0,0,0,0,0
0.43767,0.5967,0.5425,0.056365,0,0,0,0,0,0,0,0,0,0,0,0,0,0,0
NaN,0.72004,0.61074,0.62132,0.40191,0.55651,0.28384,0.43539,0.44404,0.33618,0.47772,0.38767,0.32281,0.26801,0,0,0,0,0
NaN,0.43442,0.30889,0.35482,0.38841,0.49567,0.56737,0.32253,0.24673,0.2341,0.4302,0.61358,0.55935,0,0,0,0,0,0
0.85111,0.47273,0.623,0.74176,0.73271,0.60748,0.68518,0.46877,0.67205,0.49598,0.47907,0.6619,0.65666,0.18509,0,0,0,0,0
0.13401,0.28295,0.14282,0,0,0,0,0,0,0,0,0,0,0,0,0,0,0,0
0.54616,0.65258,0.66039,0.51575,0.60707,0.94044,0.55172,0.70783,0.4233,0.60344,0.34125,0,0,0,0,0,0,0,0
0.076061,0.39289,0.42665,0.53478,0.50184,0.54268,0.36516,0.46593,0.29631,0.55031,0.46805,0.35827,0,0,0,0,0,0,0
0.27692,0.33144,0.22636,0.50619,0.69832,0.76624,0.575,0.47376,0.46506,0.31141,0.6832,0.43064,0.44847,0.68651,0.34691,0,0,0,0
0.29174,0.40393,0.39513,0.37795,0.47659,0.32501,0.70364,0.67027,0.7922,0.53708,0.62145,0.86137,0.78864,0.59088,0.4807,0.4406,0,0,0
0.45847,0.5252,0.11147,0,0,0,0,0,0,0,0,0,0,0,0,0,0,0,0
NaN,0.64606,0.5214,0.50535,0.69874,0.58516,0.68574,0.43377,0.10976,0,0,0,0,0,0,0,0,0,0
0.25455,0.41252,0.30717,0.4927,0.36223,0.68111,0.59468,0.41023,0.2336,0,0,0,0,0,0,0,0,0,0
0.26528,0.76833,0.51748,0.16854,0.31219,0.62072,0.51852,0.1936,0,0,0,0,0,0,0,0,0,0,0
0.6006,0.67661,0.72813,0.47492,0.33204,0.16241,0.65751,0.55645,0.72803,0.46929,0.55538,0.49926,0.48594,0.56429,0.67089,0.68456,0,0,0
0.439,0.49659,0.54075,0.57722,0.3541,0.38815,0.4843,0.47257,0.49682,0.59021,0.74251,0.63884,0.67458,0.48488,0.50222,0,0,0,0
0.53246,0.4098,0.53913,0.1853,0.15055,0,0,0,0,0,0,0,0,0,0,0,0,0,0
0.50928,0.26428,0.21907,0.55134,0.55706,0.39839,0.54869,0.43052,0.36863,0.47027,0.50998,0.43238,0.82864,0.60454,0,0,0,0,0
0.56264,0.58543,0.35387,0.51362,0.7673,0.12739,0,0,0,0,0,0,0,0,0,0,0,0,0
0.32528,0.28443,0.12859,0.23686,0.088399,0,0,0,0,0,0,0,0,0,0,0,0,0,0
NaN,0.5605,0.58067,0.50484,0.72687,0.63696,0.61554,0.64869,0.59914,0.49248,0.50413,0.4956,0.59464,0.56485,0.56809,0.55486,0.71397,0.6602,1.2253
0.68715,0.52944,0.39055,0.11299,0,0,0,0,0,0,0,0,0,0,0,0,0,0,0
0.27532,0.41976,0.38557,0.25189,0.15032,0.34219,0.44675,0.44969,0.57151,0.63849,0.52612,0,0,0,0,0,0,0,0
0.76992,0.45141,0.56815,0.52114,0.76846,0.71909,0.85861,0.68229,0.13036,0,0,0,0,0,0,0,0,0,0
NaN,0.60897,0.37689,0.48615,0.52625,0.68281,0.43733,0.4402,0.15647,0,0,0,0,0,0,0,0,0,0
0.61419,0.71596,0.62043,0.57995,0.59591,0.5087,0.49871,0.37228,0.48896,0.31006,0.21954,0.67922,0.57818,0.40138,0,0,0,0,0
0.38272,0.25702,0.42336,0.57319,0.33844,0.40985,0.45313,0.57211,0.64035,0.47675,0.37532,0,0,0,0,0,0,0,0
0.1101,0.49648,0.45788,0.47223,0.36449,0.40441,0.58364,0.46653,0.45274,0.52068,0.39758,0.42577,0.43784,0.36433,0,0,0,0,0
0.42419,0.62193,0.65586,0.56943,0.083404,0,0,0,0,0,0,0,0,0,0,0,0,0,0
0.71659,0.30353,0.27364,0.15528,0.44754,0.42378,0.6563,0.63495,0.5746,0.4349,0.46821,NaN,0,0,0,0,0,0,0
0.64522,0.74946,0.46351,0.598,0.43924,0.21864,0.38384,0.31243,0.38572,0.43256,0.59036,0.20743,0.44902,0,0,0,0,0,0
NaN,0.38243,0.3225,0.33579,0.26659,0.32203,0.34104,0.64486,0.34812,0.58567,0.48188,0.57607,0.77688,0.75443,0,0,0,0,0
0.23344,0.32243,0.38929,0.50011,0.53622,0.48294,0.58204,0.43573,0.36957,0.40021,0.62097,0.34378,0.38912,0,0,0,0,0,0
NaN,0.57957,0.58329,0.39175,0.57843,0.64407,0.375,0.42884,0.51848,0.41321,0.43551,0.41676,0.39241,0.52927,0.61729,0.57131,0,0,0
NaN,0.66607,0.50782,0.61844,0.74983,0.58148,0.47725,0.093871,0,0,0,0,0,0,0,0,0,0,0
0.48661,0.57248,0.50195,0.031754,0,0,0,0,0,0,0,0,0,0,0,0,0,0,0
0.3356,0.58885,0.42845,0.28683,0.46328,0.66452,0.57918,0.51068,0.62346,0.58125,0.26936,0,0,0,0,0,0,0,0
0.34478,0.34782,0.29767,0.23694,0.56632,0.73065,0.45674,0.41482,0.33745,0.30879,0.64194,0.5934,0.22554,0,0,0,0,0,0
0.48227,0.50611,0.54432,0.57215,0.64838,0.67702,0.41137,0.41868,0.36216,0.46694,0.54331,0.60383,0.51105,0.7552,0.40056,0,0,0,0
0.33735,0.26186,0.15262,0.59814,0.56868,0.62591,0.49141,0.59376,0.55298,0.64206,0.38332,0.22369,0,0,0,0,0,0,0
NaN,0.57616,0.051429,0,0,0,0,0,0,0,0,0,0,0,0,0,0,0,0
0.21769,0.4652,0.318,0.65283,0.61786,0.56764,0.58427,0.49713,0,0,0,0,0,0,0,0,0,0,0
0.3803,0.71937,0.639,0.59679,0.6627,0.4957,0.37166,0.20676,0.13655,0,0,0,0,0,0,0,0,0,0
0.37681,0.51693,0.43397,0.33109,0.29495,0.56395,0.41293,0.56596,0.35931,0.47762,0,0,0,0,0,0,0,0,0
0.41836,0.3245,0.5129,0.54309,0.69637,0.16053,0,0,0,0,0,0,0,0,0,0,0,0,0
0.14068,0.034048,0,0,0,0,0,0,0,0,0,0,0,0,0,0,0,0,0
NaN,0.31215,0.60151,0.59429,0.55015,0.49747,0.67725,0.44967,0.47954,0.42875,0.56839,0.32328,0,0,0,0,0,0,0
0.77082,0.56682,0.43515,0.25163,0.38993,0.32617,0.41206,0.56555,0.54823,0.46511,0.58191,0.60928,0.53751,0.71004,0.59723,0,0,0,0
NaN,0.48289,0.51109,0.46611,0.67959,0.61124,0.71737,0.46132,0.35874,0.33381,0.58716,0.63506,0.67701,0.68719,0.60227,0.55004,0,0,0
0.09276,0.37706,0.49034,0.072892,0.44126,0.12945,0.28406,0.55153,0.34387,0.22498,0,0,0,0,0,0,0,0,0
0.58752,0.72886,0.62091,0.49817,0.35596,0.39059,0.002333,0,0,0,0,0,0,0,0,0,0,0,0
0.042138,0.49496,0.5217,0.5786,0.44109,0,0,0,0,0,0,0,0,0,0,0,0,0,0
0.61477,0.47411,0.51015,0.353,0.21654,0.098431,0.26501,0.82778,0.94325,0.70286,0,0,0,0,0,0,0,0,0
0.87937,0.6816,0.66285,0.72431,0.6591,0.58541,0.65951,0.17766,NaN,0,0,0,0,0,0,0,0,0,0
0.40012,0.070298,0,0,0,0,0,0,0,0,0,0,0,0,0,0,0,0,0
0.3421,0.55706,0.73094,0.68793,0.61721,0.61248,0.54863,0.40211,0.44316,0.57495,0.36962,0.39374,0.53578,0.38088,0,0,0,0,0
0.32755,0.23512,0.39059,0.52239,0.5919,0.47328,0.36885,0.22296,0.038431,0,0,0,0,0,0,0,0,0,0
0.62058,0.51763,0.53614,0.57707,0.69057,0.6548,0.52894,0.5921,0.41965,0.40682,0.65737,0.68569,0.67571,0.61251,0.60913,0.43281,0.1648,0,0
0.30831,0.23543,0.066684,0.026373,0,0,0,0,0,0,0,0,0,0,0,0,0,0,0
0.4389,0.44815,0.2527,0.21312,0.63778,0.64085,0.65203,0.72372,0.61265,0.34091,0.32966,0.41129,0.14973,0,0,0,0,0,0
NaN,0.44328,0.44121,0.48869,0.41884,0.34755,0.35472,0.17876,0.29015,0.47431,0.41102,0.65172,0.43664,0.64731,0.43903,0.33046,0,0,0
0.4879,0.40198,0.38691,0.23332,0.55299,0.57559,0.51346,0.53991,0.49012,0.46101,0.53263,0.55424,0.4787,0.60539,0.51686,0.41892,0,0,0
0.49351,0.42057,0.33344,0.72948,0.42015,0.35029,0.058614,0,0,0,0,0,0,0,0,0,0,0,0
0.21682,0.4014,0.44969,0.4144,0.33505,0.38239,0.27487,0.35624,0.55692,0.39855,0.4399,0,0,0,0,0,0,0,0
0.54713,0.37719,0.18083,0.052666,0,0,0,0,0,0,0,0,0,0,0,0,0,0,0
0.52212,0.62505,0.61132,0.63623,0.66277,0.56311,0.54604,0.479,0.46241,0.29667,0.31652,0.62825,0.6125,0.51382,0.3462,0.26218,0,0,0
0.22157,0.030623,0,0,0,0,0,0,0,0,0,0,0,0,0,0,0,0,0
0.46127,0.40223,0.34873,0.48833,0.52766,0.65349,0.5628,0.59453,0.52422,0.50576,0.55708,0.5113,0.41165,0.051221,0,0,0,0,0
0.46165,0.48796,0.41986,0.53836,NaN,0.11077,0,0,0,0,0,0,0,0,0,0,0,0,0
0.12313,0.21737,0.44651,0.49303,0.3287,0.47411,0.30979,0.63802,0.4272,0.65826,0.82258,0.54595,0,0,0,0,0,0,0
NaN,0.66871,0.40372,0.39024,0.47024,0.33675,0.53474,0.4477,0.73383,0.43365,0.56689,0.72056,0.80739,0.54769,0.50853,0.45475,0,0,0
0.41771,0.3546,0.58637,0.54295,0.60987,0.38363,0.35086,0.47915,0.38645,0.54531,0.52508,0.65857,0.69724,0.38705,0.5768,0,0,0,0
0.20978,0.59176,0.49431,0.65169,0.59073,0.087461,0,0,0,0,0,0,0,0,0,0,0,0,0
0.36636,0.84592,0.40057,0.66716,0.82449,0.45215,0.44483,0.36469,0.71245,0.76245,0.73931,NaN,0,0,0,0,0,0,0
0.43357,0.33159,0.34494,0.49475,0.60156,0.38683,0.56086,0.46091,0.39956,0.36753,0.59413,0.64488,0.44185,0.55838,0.64831,0,0,0,0
0.43423,0.58627,0.35761,0.21722,0.00066027,0,0,0,0,0,0,0,0,0,0,0,0,0,0
0.1533,0.096919,0.16596,0.0046914,0,0,0,0,0,0,0,0,0,0,0,0,0,0,0
0.46451,0.64247,0.29224,0.44461,0.48174,0.32474,0.60875,0.40003,0.58132,0,0,0,0,0,0,0,0,0,0
0.37391,0.39873,0.27297,0.37649,0.15834,0.35047,0.32937,0.422,0.5389,0.15431,0,0,0,0,0,0,0,0,0
0.80192,0.73976,0.46032,0.47956,0.44056,0.47135,0.50063,0.41267,0.37262,0.37526,0.3973,0.34354,0.55676,0,0,0,0,0,0
0.66157,0.51087,0.046704,0,0,0,0,0,0,0,0,0,0,0,0,0,0,0,0
0.2679,0.31918,0.12562,NaN,0,0,0,0,0,0,0,0,0,0,0,0,0,0,0
0.47159,0.40873,0.66008,0.65445,0.5927,0.40838,0.27623,0.25225,0.42752,0.0462,0.54216,0.72786,0.68615,NaN,0,0,0,0,0
0.11263,NaN,NaN,0,0,0,0,0,0,0,0,0,0,0,0,0,0,0,0
1.0367,0.38485,0.29598,0.39468,0.38484,0.51277,0.45152,0.4278,0.46432,0.41184,0.36555,0,0,0,0,0,0,0,0
0.46816,0.52724,0.57552,0.74154,0.58948,0.74696,0.49702,0.9211,0.55878,0.33884,0.53931,0.48574,0.75793,0.28356,0,0,0,0,0
0.35415,0.24586,0.2924,0.65605,0.62136,0.68633,0.52895,0.49497,0.57492,0.46769,0.50387,0.71032,0.50101,0.55139,0.48991,0,0,0,0
0.43884,0.46599,0.39173,0.27731,0.45589,0.58086,0.57767,0.52625,0.67029,0.64603,0.42018,0.35668,0.57934,0.60751,0.63607,0,0,0,0
0.32774,0.46868,0.55291,0.80825,0.66641,0.60419,0.72108,0.41731,0.38497,0.31145,0.22172,0.45048,0.54409,0.029856,0,0,0,0,0
0.48074,0.44099,0.58575,0.52597,0.31877,0.62138,0.56733,0.088959,0,0,0,0,0,0,0,0,0,0,0
0.055196,0,0,0,0,0,0,0,0,0,0,0,0,0,0,0,0,0,0
NaN,0.48754,0.44335,0.59226,0.47849,0.29858,0.47418,0.54855,0.46777,0.41587,0.47338,0.5464,0.59162,0.47197,0.22721,0,0,0,0
0.033481,0.45097,0.57796,0.37206,0.58799,0.56574,0.62724,0.49444,0.5588,0.54508,0.54637,0.72818,NaN,0,0,0,0,0,0
0.13503,0.28132,0.67426,0.65311,0.65659,0.2514,0.22579,0.47946,0.46609,0.70792,0.51223,0.40378,0.39654,0,0,0,0,0,0
0.33867,0.41522,0.54344,0.52857,0.52952,0.55261,0.4069,0.35313,0.36938,0.49783,0.80093,0.57333,0.58639,0.79892,0,0,0,0,0
0.45631,0.76707,0.63927,0.68069,0.33059,0.30724,0.44147,0.61733,0.57188,0.67919,0.58039,0.63901,0.48142,NaN,0,0,0,0,0
0.62058,0.63285,0.5555,0.54943,0.46146,0.56093,0.63893,0.61433,0.78597,0.65862,0.70961,0.74374,0.66535,0.61638,0.68595,0.86523,0.47434,0,0
0.36629,0.61177,0.38352,0.29993,0.51398,0.79133,0.61567,0.41257,0.52068,0.033919,0,0,0,0,0,0,0,0,0
0.2449,0.32905,0.1936,0.22613,0.80081,0.40386,0.44219,0.33456,0.5762,0.40821,0,0,0,0,0,0,0,0,0
NaN,0.36792,0.32299,0.37931,0.5477,0.56493,0.46642,0.27758,0.34029,0.57449,0.64425,0.67392,0.68063,0.34409,0,0,0,0,0
0.59267,0.37273,0.37102,0.35598,0.57434,0.67077,0.62747,0.6989,0.72951,0.56894,0.2129,NaN,0,0,0,0,0,0,0
0.63148,0.46774,0.36274,0.29955,0.10103,0.37408,0.54047,0.47598,0.31131,0.41462,0.54164,0,0,0,0,0,0,0,0
0.28062,0.76857,0.55087,0.60841,0.47128,0.39405,0.43075,0.44516,0.3443,0.50497,0.47292,0.53953,0.46259,0.40565,0,0,0,0,0
0.53436,0.52398,0.61737,0.56104,0.46751,0.65281,0.10153,0,0,0,0,0,0,0,0,0,0,0,0
0.32998,0.35418,0.38275,0.41951,0.30803,0.43519,0.31665,0.41446,0.23152,0.34122,0.23667,NaN,0,0,0,0,0,0,0
NaN,0.48868,0.35998,0.29523,0.27393,0.41237,0.41976,0.4681,0.48698,0.57911,0.28425,0,0,0,0,0,0,0,0
NaN,0.17897,0.5788,0.67215,0.68021,0.15526,NaN,0,0,0,0,0,0,0,0,0,0,0,0
0.39955,0.54155,0.35641,0.41659,0.54396,0.57746,0.44795,0.7513,0.60054,0.45177,0.5186,0.20841,0,0,0,0,0,0,0
0.18926,0.55448,0.029865,0,0,0,0,0,0,0,0,0,0,0,0,0,0,0,0
0.43461,0.37928,0.33575,0.54638,0.10067,0,0,0,0,0,0,0,0,0,0,0,0,0,0
0.57864,0.046877,0,0,0,0,0,0,0,0,0,0,0,0,0,0,0,0,0
0.61478,0.32734,0.39696,0.25295,0.24614,0.28285,0.55168,0.66372,0.73391,0.62811,0.61704,0.59314,0.62782,0.63666,0,0,0,0,0
0.47244,0.29471,0.37221,0.41445,0.27271,0.045045,0,0,0,0,0,0,0,0,0,0,0,0,0
0.3496,0.60042,0.71584,0.5971,0.53466,0.34755,0.56731,0.48896,0.73473,0.54051,0.65017,0.68755,0.7981,0.68803,0.60717,0.58057,NaN,0,0
0.11015,0.26735,0.44835,0.63199,0.59753,0.4638,0.38552,0.48824,0.27909,0.3272,0.46517,0.36284,0.57047,0,0,0,0,0,0
NaN,0.54933,0.78435,0.57632,0.55083,0.59535,0.60079,0.43419,0.38692,0.3173,0.24923,0.28773,0.35373,0.55818,0.43519,0,0,0,0
0.47539,0.60021,0.05267,0,0,0,0,0,0,0,0,0,0,0,0,0,0,0,0
0.61816,0.4137,0.26703,0.34584,0.61316,0.3419,0.49777,0.68881,0.72534,0.66111,0.53929,0.50131,0.66674,0.64487,0.42094,0.52145,0,0,0
0.087485,0.45367,0.76102,0.37595,0.46764,0.26649,0.4613,0.42556,0.59594,0.66515,0.74351,0.77978,0.75368,0.59955,0.60995,0,0,0,0
NaN,0.055866,0,0,0,0,0,0,0,0,0,0,0,0,0,0,0,0,0
NaN,0.31536,0.15038,0.55636,0.77281,0.50971,0.70769,0.61768,0.55351,0.78276,0.60154,0.46982,0.64866,0.59899,0.64554,0.54991,0.4713,0,0
NaN,0.27515,0.26698,0.24707,0.69899,0.76241,0.42959,0.2734,0.37145,0.42979,0.17841,0.32748,0.38435,0,0,0,0,0,0
0.24801,0.29001,0.45555,0.38947,0.52072,0.79018,0.69045,0.767,0.59431,0.60919,0.48004,0.25618,0,0,0,0,0,0,0
0.51608,0.19859,0.17711,0.29116,0.46594,NaN,0.36248,NaN,0,0,0,0,0,0,0,0,0,0,0
0.35552,0.43454,0.69323,0.66872,0.30034,0.3347,0.30895,0.57503,0.65969,0.5929,0.57762,0.68174,0.65859,0.48409,NaN,0,0,0,0
0.31708,0.34244,0.4124,0.26437,0.3057,0.45026,0.38182,0.21993,0.23361,0.56154,0.58851,0.60038,0,0,0,0,0,0,0
0.49033,0.46642,0.29823,0.50084,0.38666,0.086418,0,0,0,0,0,0,0,0,0,0,0,0,0
0.4878,0.55727,0.26915,0.4399,0.60339,0.63694,0.61285,0.45851,0.57388,0.4542,0.12769,0,0,0,0,0,0,0,0
0.57857,0.52876,0.54548,0.4679,0.53018,0.72137,0.089865,0,0,0,0,0,0,0,0,0,0,0,0
0.51117,0.42099,0.47778,0.70359,0.78777,0.72585,0.64476,0.42539,0.30314,0.22778,0.48149,0.50888,0.35904,0.42718,0.66505,0,0,0,0
0.39133,0.37203,0.37139,0.3602,0.52369,0.53944,0.65231,0.52471,0.55624,0.44733,0.53974,0.54864,0.39038,0.30216,0,0,0,0,0
0.35656,0.42264,0.30761,0.18893,0.35569,0.24408,0.64271,0.62902,0.23008,0.41354,0,0,0,0,0,0,0,0,0
0.43165,0.65075,0.58284,0.59444,0.668,0.68666,0.54476,0.53019,0.51034,0.69688,0.47249,0.13596,0,0,0,0,0,0,0
0.25102,0.43374,0.78225,0.52005,0.34558,0.33962,0.38291,0.58343,0.33421,0.41559,0.59379,0.41646,0.39283,0.43089,0,0,0,0,0
0.52232,0.42817,0.5524,0.37198,0.45917,0.27793,0.28306,0.32128,0.24542,0,0,0,0,0,0,0,0,0,0
0.33135,0.29149,0.52231,0.59971,0.44155,0.41351,0.61422,0.46537,0.63391,0.67633,0.60194,0.52993,0.43318,0.34995,0.22453,0,0,0,0
0.27047,0.43637,0.35872,0.55998,0.46642,0.26086,0.297,0.49064,0.60164,0.55939,0.30988,0.43287,0.47216,0,0,0,0,0,0
NaN,0.5476,0.50114,0.46453,0.034199,0,0,0,0,0,0,0,0,0,0,0,0,0,0
0.13666,0.26206,0.26523,0.33096,0.52154,0.29839,0.6943,0.56518,0.60584,0.57926,0.68347,0.46001,0.30569,0,0,0,0,0,0
0.29079,0.13028,0.22217,0.25719,0.3366,0.52026,0.35185,0.36248,0.59897,0.54166,0.29625,0,0,0,0,0,0,0,0
0.59971,0.56916,0.63339,0.4845,0.36905,NaN,0,0,0,0,0,0,0,0,0,0,0,0,0
NaN,0.52352,0.32474,0.35643,0.51422,0.69138,0.58855,0.54585,0.17092,0,0,0,0,0,0,0,0,0,0
0.49761,0.70906,0.38006,0.25958,0.28039,0.22033,0.05177,0.12782,0,0,0,0,0,0,0,0,0,0,0
0.34239,0.28532,0.22435,0.40938,0.37372,0.53256,0.39388,0.45702,0.44255,0.42886,0.56713,0.3768,0.44607,0.046517,0,0,0,0,0
0.85204,0.63288,0.57334,0.52204,0.5483,0.60344,0.59752,0.56322,0.59002,0.54182,0.50282,0.54197,0.47978,0.30658,0.35212,0.33679,0.53658,0,0
0.70848,0.5393,0.64569,0.67415,0.65926,0.55676,0.41576,0.35213,0.50704,0.64285,0.38912,0.48397,0.26807,0.33397,0,0,0,0,0
0.29279,0.30356,0.53383,0.37993,0.41281,0.45266,0.21802,0,0,0,0,0,0,0,0,0,0,0,0
0.2241,0.28265,0.45134,0.58716,0.59701,0.66938,0.61597,0.6809,0.57673,0.49874,0.63767,0.53785,0.32333,0.63586,0.58723,0,0,0,0
0.49569,0.56464,0.55425,0.39579,0.39746,0.47582,0.2808,0.62337,0.26517,0.38329,0.3985,0.21514,NaN,0,0,0,0,0,0
0.58599,0.51772,0.44911,0.44284,0.075763,0,0,0,0,0,0,0,0,0,0,0,0,0,0
0.045234,0,0,0,0,0,0,0,0,0,0,0,0,0,0,0,0,0,0
0.3703,0.3172,0.33702,0.20585,0.3227,0.20946,0.40959,0.43975,0.48438,0.37921,0.46197,0,0,0,0,0,0,0,0
0.55491,0.42759,0.53813,0.57874,0.6197,0.57726,0.54441,0.30983,0.48945,0.23057,0.14859,0,0,0,0,0,0,0,0
0.43961,0.37263,0.433,0.5408,0.51598,0.44848,0.22379,0.13267,0.28584,0,0,0,0,0,0,0,0,0,0
0.62058,0.48481,0.48141,0.6657,0.51472,0.58109,0.55217,0.49016,0.36619,0.57413,0.42914,0.56818,0.71207,0.4744,0.35622,0,0,0,0
0.38688,0.26972,0.62489,0.78152,0.42593,0.60356,0.72757,0.67782,0.27006,NaN,0,0,0,0,0,0,0,0,0
0.37535,0.34275,0.51776,0.52639,0.45479,0.40805,0.37647,0.45421,0.4566,0.57538,0.53898,0.67222,0.51961,0.42032,0,0,0,0,0
0.36627,0.48624,0.55059,0.54958,0.39251,0.29888,0.38292,0.34121,0.3418,0.5994,0.42637,0.1839,0,0,0,0,0,0,0
NaN,0.55502,0.67925,0.6942,0.71504,0.58233,0.47306,0.64728,0.63597,0.45092,0.49103,0.56771,0.47122,0.22348,0.69448,0.71991,0.85499,0.67633,0.49282
0.51764,0.50445,0.63172,0.62601,0.6661,0.49647,0.34624,0.3502,0.58852,0.49185,0.32639,0.46675,0.2731,0.067204,0,0,0,0,0
NaN,0.65689,0.41525,0.28336,0.32023,0.67828,0.44266,0.40531,0.45358,0.51914,0.19217,0.61451,0.51221,0.34492,0,0,0,0,0
0.58928,0.46758,0.47963,0.25744,NaN,0,0,0,0,0,0,0,0,0,0,0,0,0,0
NaN,0.66046,0.16552,0,0,0,0,0,0,0,0,0,0,0,0,0,0,0,0
0.5231,0.53598,0.45651,0.48198,NaN,0.19071,0.551,0.54365,0.35293,0.52586,0.45792,NaN,0,0,0,0,0,0,0
0.21798,0.58872,0.57618,0.55688,0.057319,0,0,0,0,0,0,0,0,0,0,0,0,0,0
0.5264,0.67244,0.61892,0.32082,0.38243,0.7924,0.32734,0.30066,0.43882,0.53705,0.41337,0.49115,0.40885,0,0,0,0,0,0
NaN,0.4861,0.41167,0.53516,0.36414,0.031005,0,0,0,0,0,0,0,0,0,0,0,0,0
0.37889,0.45077,0.19347,0.62033,0.36909,0.25113,0.18101,0,0,0,0,0,0,0,0,0,0,0,0
0.33836,0.57709,0.46924,0.51992,0.27445,0.4031,0.36449,0.35442,0.14563,0,0,0,0,0,0,0,0,0,0
0.48358,0.57913,0.26464,0.41752,0.63699,0.70146,0.44909,0.63494,0.1521,0,0,0,0,0,0,0,0,0,0
0.57039,0.59084,0.47136,0.51866,0.39262,0.58603,0.1698,0,0,0,0,0,0,0,0,0,0,0,0
0.054593,0,0,0,0,0,0,0,0,0,0,0,0,0,0,0,0,0,0
0.56296,0.19029,0.70478,0.51042,0.67352,0.39503,0.64442,0.56191,0.45899,0.39829,0.49129,0.28763,0.43262,0.46163,0.79679,0,0,0,0
NaN,0.36636,0.20854,0.58868,0.62987,0.69064,0.46544,0.41198,0.49457,0.47101,0.57554,0.61842,0.55619,0.4984,0.47315,0.36191,0,0,0
0.64108,0.47314,0.59421,0.52761,0.49136,0.47969,0.52417,0.22962,0.36214,0.50154,0.59329,0.81406,0.74514,0.54763,0.64657,0.63619,0,0,0
0.33161,0.32736,0.42266,0.43151,0.48782,0.41005,0.26527,0.22249,0,0,0,0,0,0,0,0,0,0,0
0.45741,0.30716,0.42932,0.38251,0.3764,0.21544,0.22811,0.27664,NaN,0,0,0,0,0,0,0,0,0,0
0.3394,0.27272,0.34313,0.21543,0.32935,0.65363,0.5629,0.68875,0.76877,0.55839,0.5688,0.5402,0.62418,NaN,0,0,0,0,0
0.48255,0.50013,0.5388,0.66598,0.47025,0.39196,0.42829,0.46887,0.33635,0.61356,0.60282,0.55299,NaN,0.70542,NaN,0,0,0,0
0.34793,0.5009,0.4942,0.54114,0.5063,0.58207,0.71839,0.49921,0.21743,0.54068,0.61194,0.23018,0.55683,0.63309,0,0,0,0,0
0.74379,0.81943,0.60373,0.64041,0.77038,0.40634,0.30946,NaN,0,0,0,0,0,0,0,0,0,0,0
0.47025,0.30426,0.51734,0.24745,0.41445,0.42379,0.36452,0.31586,0.23049,0.24095,0.11521,NaN,0,0,0,0,0,0,0
0.25589,0.53244,0.79644,0.46309,0.47719,0.4637,0.36627,0.42344,0.4397,0.45252,0.55697,0.46285,0.72847,0.53435,0.40353,0,0,0,0
0.41143,0.47603,0.51292,0.53982,0.3277,0.44502,0.64587,0.52657,0.42692,0.17741,0.083223,0,0,0,0,0,0,0,0
0.22982,0.5114,0.347,0.54702,0.027532,0,0,0,0,0,0,0,0,0,0,0,0,0,0
NaN,0.56453,0.40447,0.40405,0.60436,0.5653,0.34947,0.46645,0.38218,0.4915,0.43682,0.47616,0.35186,0.46014,0.52853,0.56439,0,0,0
0.39083,0.55833,0.52154,0.64035,0.35699,0.20141,0.25748,0.38333,0.39133,0.54197,0.28173,0.31706,0,0,0,0,0,0,0
0.42315,0.51587,0.60437,0.4733,0.32509,0.55213,0.79281,0.77551,0.73406,0.75774,0.043767,0,0,0,0,0,0,0,0
0.53633,0.69447,0.70695,0.65437,0.60587,0.40193,0.32725,0.65993,0.66078,0.35172,0.61511,0.48592,0.5522,0.52974,0.59123,0.5235,0.33841,0,0
0.36424,0.50571,0.39696,0.44419,0.62379,0.46252,0.55932,0.61445,0.31293,0.35785,0.25345,0.34134,0.9077,0.38879,0,0,0,0,0
0.069127,0.3667,0.41157,NaN,0,0,0,0,0,0,0,0,0,0,0,0,0,0,0
0.22947,0.1909,0.46139,0.15376,0,0,0,0,0,0,0,0,0,0,0,0,0,0,0
0.035234,0,0,0,0,0,0,0,0,0,0,0,0,0,0,0,0,0,0
0.29182,0.31056,0.35644,0.23602,0.42121,0.4036,1.0128,0.33441,0.56579,0.15887,0,0,0,0,0,0,0,0,0
0.3336,0.31922,0.19734,0.21514,0.41971,0.31304,0.36371,0.40784,0.53476,0.64066,0.28194,0.69972,0,0,0,0,0,0,0
0.5011,0.48384,0.35359,0.2315,0.42517,0.57898,0.54993,0.62471,0.61633,0.73027,0.77184,0.61005,0.63436,0.35972,0.33899,0,0,0,0
NaN,0.39973,0.30573,0.34856,0.3492,0.19032,0.32034,0.30426,0.40359,0.26531,0,0,0,0,0,0,0,0,0
0.33047,0.46639,0.62348,0.74134,0.41942,0.32218,0.22216,0.38452,0.49649,0.57521,0.65753,0.32536,0,0,0,0,0,0,0
0.6737,0.03162,0,0,0,0,0,0,0,0,0,0,0,0,0,0,0,0,0
NaN,0.46737,0.33091,0.33495,0.50917,0.34751,0.39744,0.64984,0.96313,0,0,0,0,0,0,0,0,0,0
0.51716,0.59659,0.41807,0.25305,0,0,0,0,0,0,0,0,0,0,0,0,0,0,0
0.70684,0.46021,0.69824,0.44219,0.42319,0.40661,0.5138,0.17052,0.13816,0.26225,0,0,0,0,0,0,0,0,0
0.091513,0.27336,0.071558,0,0,0,0,0,0,0,0,0,0,0,0,0,0,0,0
NaN,0.062339,0,0,0,0,0,0,0,0,0,0,0,0,0,0,0,0,0
NaN,0.45324,0.36147,0.27912,0.33584,0.45224,0.62332,0.59633,0.80234,0.43623,0.44321,0.50462,0.66583,0.53989,0.66748,0.58917,0.7012,NaN,0
0.3069,0.34944,0.54212,0.36564,0.41694,0.28527,0.28585,0.56853,0.46851,0.52935,0.36168,0.13532,NaN,0,0,0,0,0,0
0.60158,0.66743,0.48278,0.43904,0.42875,0.46683,0.49873,0.38228,0.3281,0.62284,0.5184,NaN,0,0,0,0,0,0,0
NaN,0.6011,0.55777,0.59348,0.46851,0.39917,0.37717,0.3568,0.57837,0.49367,0.55764,0.31657,0.37658,0.3945,0.4257,0,0,0,0
0.51671,0.39176,0.55429,0.54087,0.2711,0.21935,0.21018,0.44176,0.4452,0.68594,0.40257,0.64248,0.83237,NaN,0,0,0,0,0
NaN,0.23121,0.22178,0.34935,0.18371,0,0,0,0,0,0,0,0,0,0,0,0,0,0
0.36192,0.47784,0.41329,0.21128,0.31512,0.35676,0.33111,0.25028,0.68884,0.65855,0.53968,0.51602,0,0,0,0,0,0,0
0.51636,0.62256,0.4968,0.61107,0.56258,0.65706,0.71399,0.46599,0.59691,0.4817,0.22938,0.33214,0,0,0,0,0,0,0
0.24566,0.49092,0.35483,0.35325,0.2892,0.33387,0.13412,0,0,0,0,0,0,0,0,0,0,0,0
0.19403,NaN,0,0,0,0,0,0,0,0,0,0,0,0,0,0,0,0,0
0.46791,0.49685,0.68464,0.68009,0.44721,0.60493,0.60028,0.59569,0.4742,0.49758,0.42863,0.53618,0.78872,0.69833,0.64567,0.62156,0.72761,0.64805,0
0.31604,0.58242,0.53556,0.57684,0.57002,0.56053,0.68019,0.5882,0.50548,0.81805,0.64901,0.60183,0.57559,0.69434,0.48736,0.58739,0.96422,0.58091,0
0.38264,0.30015,0.50168,0.67337,0.54433,0.23151,0.53599,0.42369,0.4273,0.4943,0.53968,0.49839,0.26728,0.2944,0,0,0,0,0
0.40576,0.67585,0.42236,0.41222,0.4699,0.47386,0.42069,0.21709,0.093977,0.50586,0,0,0,0,0,0,0,0,0
0.41846,0.62285,0.48255,0.51971,0.37807,0.32583,0.66075,0.53833,0.23655,0,0,0,0,0,0,0,0,0,0
0.38039,0.58103,0.65467,0.38594,0.39456,0.60593,0.52101,0.38846,0.42135,0.30282,0.36037,0.60263,0.61375,0.49952,0.5256,0,0,0,0
NaN,0.52104,0.64618,0.57788,0.43087,0.15579,0.55355,0.50709,0.48674,0.20703,0.27477,0.4795,0.49597,0,0,0,0,0,0
0.0256,0.15624,0.33303,0.3736,0.58291,0.43455,0.43406,0.52117,0.38589,0.58756,0.58306,0.29523,0.10761,0,0,0,0,0,0
0.43268,0.61213,0.62484,0.45464,0.33749,0.39774,0.62771,0.51101,0.43509,0.48148,0.50253,0.63474,0.63677,0.40235,0,0,0,0,0
0.57658,0.20548,0.046293,0,0,0,0,0,0,0,0,0,0,0,0,0,0,0,0
0.22886,0.43143,0.58982,0.43218,0.51041,0.56223,0.4933,0.3007,0.41677,0.44187,0.60053,0.40746,0.42988,0.63151,0.59755,0,0,0,0
NaN,0.70674,0.67017,0.22607,NaN,0.096103,0,0,0,0,0,0,0,0,0,0,0,0,0
0.49219,0.43354,0.39088,0.52029,0.66563,0.68562,0.7423,0.56317,0.60553,0.60488,0.61832,0.28571,0.39163,0.721,0.24613,0,0,0,0
