0.090392,0.52277,0.53978,0.75878,0.64524,0.73555,0.74276,0.87873,0.59652,0.66859,0.5106,0.88808,0.6287,0.94817,0,0,0,0
0.64674,0.61928,0.86412,0.55323,0.3274,0.31188,0.63155,0.75352,0.48874,0.81724,0.79783,0.55477,0.57194,0.48603,0.44418,0,0,0
0.34916,0.52048,0.50911,0.62098,0.44072,0.49597,0.46096,0.68088,0.60016,0.49756,0.69936,0.66541,0.59252,0.4791,0.44733,0.62859,0,0
0.53258,0.24147,0.32627,0.65947,0.67211,0.60822,0.6798,0.55036,0.6225,0.5929,0.67891,0.68887,0.74913,0.56537,0,0,0,0
0.16471,0.72796,0.84568,0.33102,0.56063,0.68222,0.58516,0.71558,0.52544,0.5806,0.36913,0,0,0,0,0,0,0
0.23883,0.53437,0.65435,0.43781,0.32063,0.35229,0.4172,0.46173,0.52204,0.54079,0.4864,0.59768,0.57756,0,0,0,0,0
0.29903,0.47381,0.27086,0.40018,0.49391,0.3976,0.38643,0.38491,0.4641,0.43101,0.51952,0.61236,0.46245,0,0,0,0,0
0.73183,0.58581,0.26918,0.8083,0.5185,0.67854,0.95871,0.51153,0.82241,0.64941,0.75967,0.68122,0.49624,0.4384,0.72595,0.67532,0.62915,0.32245
0.65992,0.48374,0.26723,0.66176,0.67797,0.73409,0.74611,0.76251,0.69906,0.42877,0.52455,0.79186,0.55845,0.57865,0.66791,0.4228,0,0
0.2365,0.4278,0.64421,0.58859,0.41657,0.60554,0.58537,0.82006,0.57344,0.39522,0.6421,0.85829,0.62932,0.77687,0.51174,0.64619,0.77383,0
0.52518,0.70788,0.51406,0.78565,0.62353,0.75799,0.65119,0.57211,0.56151,0.64846,0.73318,0.64402,0.64468,0.54256,0.40094,0.43204,0,0
0.47803,0.52441,0.40165,0.6562,0.76628,0.67476,0.71277,0.7594,0.60492,0.36074,0.3997,0.46212,0.59521,0,0,0,0,0
NaN,0.42635,0.59336,0.57845,0.63737,0.62533,0.42175,0.5475,0.48301,0.26431,0.52728,0.70138,0.64009,0.60071,0.5803,NaN,0,0
0.31773,0.37954,0.1964,0.57131,0.70798,0.32325,0.5959,0.59896,0.6082,0.54513,NaN,0.83983,0,0,0,0,0,0
0.3803,0.20547,0.41303,0.39653,0.5977,0.71558,0.68804,0.37637,0.42276,0.74866,0.61605,0.51094,0.7537,0.62465,0,0,0,0
NaN,0.78038,0.70993,0.49513,0.47458,0.42031,0.56827,0.6786,0.51511,0.54169,0.59636,0.59644,0.67227,0.52141,0.66001,0.57413,NaN,0
NaN,0.64017,0.51102,0.52315,0.50709,0.44403,0.66441,0.5461,0.4615,0.56606,0.46656,0.41697,0.43126,0.45367,0.49126,0,0,0
0.70122,0.51874,0.39871,0.35771,0.29474,0.29081,0.37095,0.36232,0.22784,0.3789,0,0,0,0,0,0,0,0
0.090364,0.54007,0.67674,0.70937,0.52042,0.55413,0.47038,0.2635,0.26378,0.093271,NaN,NaN,0,0,0,0,0,0
0.27484,0.62764,0.6104,0.53399,0.64698,0.5078,0.62048,0.56391,0.48138,0.50475,0.7145,0.59419,0.54936,0.56463,0.5741,0.55972,0,0
0.35957,0.72184,0.63555,0.62196,0.54316,0.48304,0.66222,0.38408,0.49033,0.53097,0.54137,0.49867,0.47308,0.4938,0,0,0,0
0.58927,0.68504,0.57683,0.50274,0.51373,0.65872,0.6698,0.51254,0.52318,0.24357,0.33636,0.67542,0.53648,0.49665,0.52959,0,0,0
0.11079,0.26796,0.42422,0.70704,0.6193,0.3221,0.30274,0.67801,0.65698,0.75159,0.53592,0.56796,NaN,0,0,0,0,0
NaN,0.42637,0.48979,0.72899,0.54835,0.53414,0.52289,0.42165,0.6548,0.54166,0.55957,0.51496,0.23732,0.48754,0,0,0,0
NaN,0.72559,0.71929,0.67391,0.51031,0.53652,0.58412,0.54469,0.63261,0.67027,0.75912,0.51767,0.66,0.60152,0.64876,0.41497,0.5213,0
0.3235,0.34981,0.42643,0.67545,0.61866,0.656,0.53638,0.47618,0.795,0.56321,0.76672,0.80889,0.7529,0.79017,0.83316,0.78621,NaN,0
0.34438,0.62108,0.78154,0.5221,0.6407,0.48594,0.34913,0.38103,0.60602,0.64016,0.60632,0.57315,0.64965,0.6086,0,0,0,0
0.34383,0.53104,0.47622,0.29019,0.32661,0.47236,0.33567,0.41629,0.39426,0.63054,0.48172,0.50699,0.54323,0.56572,NaN,0,0,0
0.58226,0.64703,0.58173,0.40585,0.56859,0.54056,0.55582,0.62826,0.56246,0.57089,0.45762,0.59727,0.59356,0.58009,0.50493,0.47466,0,0
0.2355,0.63093,0.65574,0.71126,0.79563,0.6263,0.27621,0.65825,0.5294,0.49189,0.78319,0.86003,0.82803,0.8186,0.90098,0.73806,NaN,0
0.50637,0.5815,0.66857,0.41702,0.54046,0.24665,0.47386,0.64749,0.64099,0.62034,0.72145,0.78534,0.53748,0.63591,0.39557,0.58486,0,0
0.2134,0.70799,0.57107,0.45124,0.38376,0.3853,0.65624,0.63156,0.1052,0.36972,0.5228,0.46738,0.63745,0.53228,0,0,0,0
0.16777,0.57101,0.47072,0.55213,0.50888,0.63325,0.60677,0.62917,0.78194,0.71287,0.72227,0.71941,0.86488,0.74819,0.3564,0,0,0
