6.8,8,8.8,9.8667,10.8,12,13.067,13.867,14.8,15.867,17.067,18,18.933,19.867,0,0,0,0
0.8,2.9333,3.4667,4.6667,6.5333,8.9333,10.133,11.333,12.4,13.467,14.4,15.733,16.933,18.267,19.867,0,0,0
0.66667,1.8667,3.6,4.6667,6.2667,7.6,9.3333,10.533,11.6,13.067,14.267,15.467,16.533,18,19.333,19.867,0,0
0.93333,4.5333,6.8,8,8.9333,10,11.2,12.667,14,15.467,16.8,17.733,18.933,19.867,0,0,0,0
1.8667,3.2,4.1333,5.7333,7.2,8.5333,9.6,10.533,11.6,12.933,13.733,0,0,0,0,0,0,0
2.4,3.8667,4.6667,6.4,8.5333,10.533,12.133,13.333,14.667,16.267,17.733,19.067,19.867,0,0,0,0,0
2.4,3.4667,5.7333,7.3333,8.4,10,12,13.6,14.8,16.267,17.6,18.667,19.867,0,0,0,0,0
0.8,2.1333,4.1333,5.4667,6.4,7.6,8.4,9.6,11.067,11.867,12.667,13.867,14.8,16,16.933,18,18.8,19.867
0.8,2.2667,4.8,5.8667,6.8,7.8667,8.8,10,11.333,12.533,14.267,15.2,16.267,17.6,18.8,19.867,0,0
1.6,3.0667,4.4,5.4667,6.5333,7.8667,9.0667,10,10.933,12.533,13.6,14.667,15.733,16.8,17.867,18.933,19.867,0
1.8667,2.9333,4,5.0667,6.2667,7.2,8.4,9.7333,11.2,12.133,13.333,14.267,15.333,16.533,18.4,19.867,0,0
0.53333,1.8667,4.2667,5.3333,6.4,7.2,8.4,9.4667,10.667,11.867,14,15.067,16,0,0,0,0,0
0.13333,1.4667,2.8,4.1333,5.2,6.2667,8.2667,9.4667,10.933,14,15.2,16,17.067,18.267,19.733,19.867,0,0
1.6,3.8667,8.1333,9.0667,10,12.533,13.733,14.667,16,17.2,17.333,18.267,0,0,0,0,0,0
0.26667,4,6.1333,7.7333,8.6667,9.8667,10.8,12.667,14.267,15.467,16.8,18,18.8,19.867,0,0,0,0
0,1.0667,2.2667,3.4667,5.2,6.9333,8.2667,9.4667,10.8,12,13.2,14.533,15.467,17.2,18.533,19.733,19.867,0
0,1.4667,2.8,4,5.6,7.2,8.4,9.4667,11.333,12.533,14.133,15.6,16.933,18.4,19.867,0,0,0
0.66667,2.1333,3.8667,5.7333,8.4,11.2,13.467,15.333,19.467,19.867,0,0,0,0,0,0,0,0
1.2,2.5333,3.8667,5.0667,6.2667,7.6,14,14.533,15.067,19.867,2.9333,2.4,0,0,0,0,0,0
1.4667,2.8,4,5.2,6.2667,7.8667,8.8,10.267,11.333,12.8,13.867,15.067,16.4,17.6,18.533,19.867,0,0
1.0667,2.2667,3.3333,4.4,5.7333,7.2,8.4,10.4,12.4,13.467,14.933,16.533,18.267,19.867,0,0,0,0
0.26667,1.2,2.5333,3.8667,5.0667,6.2667,7.4667,8.6667,9.8667,12.933,15.2,16.133,17.2,18.933,19.867,0,0,0
2.6667,4.9333,6.9333,7.8667,8.8,10.667,13.733,14.8,15.733,16.667,18.533,19.733,19.867,0,0,0,0,0
0.13333,1.8667,3.3333,4.6667,5.7333,6.9333,8.5333,10.4,11.333,12.933,14.133,15.6,18.533,19.867,0,0,0,0
0.13333,1.2,2.4,3.4667,4.9333,6.1333,7.3333,8.5333,9.7333,10.933,12,13.467,14.8,15.733,16.8,18.4,19.867,0
1.0667,3.3333,5.2,6.4,7.3333,8.4,10.133,11.333,12.133,13.6,14.533,15.6,16.4,17.467,18.533,19.067,19.333,0
1.7333,2.9333,4.1333,5.7333,6.8,8.4,10.267,12.533,13.6,14.933,16.267,17.2,18.533,19.867,0,0,0,0
0.53333,1.7333,2.9333,5.8667,7.8667,9.0667,10.667,11.733,13.467,14.667,15.867,17.467,18.4,19.733,19.867,0,0,0
1.2,2.2667,3.4667,5.0667,6.2667,7.6,8.9333,10.133,11.467,12.667,14,15.467,16.533,17.733,19.067,19.867,0,0
1.8667,3.0667,4.2667,4.9333,6,7.3333,10.133,11.067,12.4,13.6,14.667,15.6,16.667,17.6,18.4,19.733,19.867,0
0.4,1.4667,2.6667,4.2667,5.4667,8.2667,9.4667,10.667,11.6,12.8,13.867,14.933,16.133,17.333,18.8,19.867,0,0
0.26667,1.6,2.6667,3.8667,5.7333,8.1333,9.2,10.267,13.2,15.2,16.8,18.133,19.333,19.867,0,0,0,0
1.2,3.0667,4.2667,5.6,7.0667,8.4,9.6,11.067,12.267,13.333,14.267,15.6,16.933,17.867,19.867,0,0,0
