0.083333,0.58333,1.25,1.8333,2.5,3.25,3.8333,4.4167,4.9167,5.4167,5.9167,6.5833,7.1667,7.6667,8.25,8.75,9.1667,9.6667,10.25,10.917,11.583,11.667
0.58333,1.75,2.75,3.25,4.1667,5.1667,6.0833,7.0833,8,8.6667,9.25,10,10.583,10.667,0,0,0,0,0,0,0,0
0.16667,0.83333,1.5833,1.9167,2.6667,3.25,4.6667,5.9167,6.9167,8.1667,9.0833,9.8333,10.75,11.5,11.667,0,0,0,0,0,0,0
0.5,1.4167,1.9167,2.4167,3.0833,4.1667,5.1667,5.8333,6.6667,7.5833,8.75,9.6667,10.167,10.75,11.667,0,0,0,0,0,0,0
0.25,0.83333,1.3333,1.9167,2.6667,3.4167,3.8333,4.4167,5.1667,6.25,6.75,7.1667,7.75,8.3333,8.6667,0,0,0,0,0,0,0
0.25,1,1.75,2.5,2.8333,3.5833,4.25,4.8333,5.4167,6.3333,7.0833,7.9167,9.0833,11.5,11.667,0,0,0,0,0,0,0
0.75,1.5,2,2.6667,3.3333,4.0833,4.4167,5.0833,5.6667,6.75,7.75,8.4167,8.9167,9.4167,10,10.75,11.083,0,0,0,0,0
0.16667,0.66667,1.3333,1.8333,2.5,3,3.6667,4.25,4.9167,5.5833,6.25,6.9167,7.5,8,8.5,9.0833,9.6667,10.417,10.833,11.5,11.667,0
0.66667,4.1667,5.5833,7.3333,8.5833,9.1667,10.083,10.917,11.667,0,0,0,0,0,0,0,0,0,0,0,0,0
0.083333,1,1.6667,2.4167,3,3.5833,4.25,4.8333,5.5,6,6.4167,7.1667,7.6667,8.3333,8.75,9.5,10.083,10.833,11.25,11.667,0,0
0.083333,0.66667,1.5,2.4167,3.25,3.8333,4.5833,5.0833,5.8333,6.6667,7.75,8.5,9.1667,9.75,10.833,11.5,11.667,0,0,0,0,0
0.58333,1.1667,1.9167,2.5833,3.3333,4,4.75,5.25,5.9167,6.75,7.1667,7.5833,8.0833,8.6667,9.3333,10,10.417,11.083,11.667,0,0,0
0.5,1.1667,1.9167,2.6667,3.25,3.75,4.5,5.0833,5.9167,6.5,7.1667,8.0833,8.5833,9.1667,9.75,10.25,0,0,0,0,0,0
0.16667,0.83333,1.4167,1.9167,2.5,3.1667,3.6667,4.5833,5.0833,5.6667,6.1667,6.75,7.4167,8.0833,8.5,9.0833,9.8333,10.5,10.917,11.333,11.667,0
1.1667,2.0833,2.9167,3.75,4.3333,5.0833,5.75,6.25,7,7.75,8.3333,8.6667,0,0,0,0,0,0,0,0,0,0
0.41667,1.5833,2,2.6667,3.1667,3.9167,4.3333,4.9167,5.5,6.25,6.9167,7.9167,8.5833,9.4167,10,10.667,11.583,11.667,0,0,0,0
0.83333,1.9167,2.25,2.75,3.3333,3.8333,4.5833,5.0833,5.75,6.4167,7,7.5,8.0833,8.5,9.0833,10,11.167,11.667,0,0,0,0
0.083333,0.58333,1.25,1.8333,2.25,2.8333,3.5833,4,4.75,5.5,6.1667,6.8333,8.5,10,10.833,11.583,11.667,0,0,0,0,0
0.66667,1.4167,2.3333,3.0833,3.5833,4.0833,5.1667,6.8333,7.8333,9.1667,9.5,10,11,11.667,0,0,0,0,0,0,0,0
0.25,0.91667,1.6667,2.5,3.4167,4.3333,5.0833,5.9167,6.6667,7.5,8.3333,8.8333,9.5833,10.333,10.917,11.5,11.667,0,0,0,0,0
0.58333,1.1667,1.8333,2.4167,3,3.5,4.0833,4.6667,5.25,5.8333,6.3333,6.8333,7.1667,7.9167,8.3333,9.0833,9.6667,10.167,11.5,11.667,0,0
0.66667,1.3333,2.0833,2.8333,3.5,4.1667,5.1667,7.6667,9.8333,11,11.667,0,0,0,0,0,0,0,0,0,0,0
0.083333,0.83333,2.25,3.0833,4.0833,4.5833,5.25,6.0833,6.8333,7.75,8.9167,11.25,11.667,0,0,0,0,0,0,0,0,0
0.41667,1.1667,2.0833,2.3333,3.1667,5.1667,5.9167,7.1667,8,8.4167,9.1667,9.6667,10.167,10.833,11.417,11.583,0,0,0,0,0,0
0.33333,1.25,1.9167,2.6667,3.1667,3.9167,4.4167,5.1667,5.75,6.5833,8,10.083,11.5,11.667,0,0,0,0,0,0,0,0
0.33333,1.1667,1.9167,2.5833,3,3.5833,4.0833,4.9167,6.1667,7.25,8.1667,8.8333,9.5833,10.333,10.833,11.417,11.667,0,0,0,0,0
0,0.58333,0.91667,1.75,2.1667,2.9167,3.5833,4.1667,4.8333,5.3333,6.1667,6.9167,7.5,8.25,8.8333,0,0,0,0,0,0,0
0.33333,0.91667,1.5,2.4167,3.25,3.8333,4.4167,5.0833,5.6667,7.1667,8.3333,10,11.25,11.667,0,0,0,0,0,0,0,0
0.33333,1.1667,2.4167,3.3333,4.4167,5.0833,5.9167,6.6667,7.5,8.4167,9.0833,10.25,11,11.667,0,0,0,0,0,0,0,0
0,0.75,2,3.1667,3.5833,4.25,5.1667,5.75,7.1667,8.0833,8.4167,9.3333,9.5833,9.75,11.583,11.667,0,0,0,0,0,0
0.58333,1,1.8333,2.5833,3.1667,4.25,6.0833,7.5,8.5,9.4167,10,10.75,11.667,0,0,0,0,0,0,0,0,0
0.41667,1.1667,1.6667,2.4167,3.1667,3.5833,4.1667,4.9167,5.75,6.3333,6.8333,7.6667,8.0833,8.5833,9.1667,10.167,11.167,11.667,0,0,0,0
0,0.5,1.1667,1.6667,2.4167,2.9167,3.3333,4,4.75,5.75,6.75,7.5833,0,0,0,0,0,0,0,0,0,0
0.33333,1,1.5833,2.25,3.3333,4.3333,4.9167,5.8333,6.5,7.1667,7.8333,8.75,9.5,11.333,11.667,0,0,0,0,0,0,0
0.41667,1,1.5833,2.1667,2.75,3.3333,4,4.5833,5.1667,5.8333,6.5,7.25,7.9167,8.5,9,9.5,10.333,10.833,11.667,0,0,0
0,0.25,0.83333,2.25,2.5833,3.1667,3.75,4.4167,5.0833,5.6667,6.25,6.6667,7.1667,7.8333,8.75,9.5833,10.417,10.917,11.5,11.667,0,0
0.25,1.25,1.9167,2.5833,3.1667,3.8333,4.6667,5.1667,5.5833,6.4167,6.8333,7.25,7.8333,8.4167,9,0,0,0,0,0,0,0
0.5,1,1.25,1.5,2.1667,2.8333,3.3333,3.75,4.3333,5.0833,5.5833,6.1667,7,7.9167,8.9167,9.6667,10.333,11.25,11.667,0,0,0
0.25,1.1667,2.0833,2.8333,3.5,4.75,5.5,6.3333,6.9167,7.8333,8.5833,9.1667,9.6667,9.8333,0,0,0,0,0,0,0,0
0.16667,1.1667,2,2.5833,3.25,4.1667,5,5.75,6.4167,7.0833,8.0833,9.5,10.083,10.833,11.417,11.667,0,0,0,0,0,0
0.16667,1,1.8333,2.9167,3.9167,4.5833,5.3333,6.3333,6.8333,7.3333,8,8.5,9.3333,9.8333,10.583,11.167,11.667,0,0,0,0,0
0.33333,0.66667,1.25,1.9167,2.8333,3.75,4.1667,5,5.9167,6.75,7.4167,8.1667,8.6667,0,0,0,0,0,0,0,0,0
0.33333,2.0833,2.5,2.8333,3.6667,4.25,4.6667,5.5833,6.25,6.6667,7.25,7.8333,8.4167,8.9167,9.5833,10.083,10.833,11.167,11.667,0,0,0
0.083333,0.83333,1.6667,2.5833,3.1667,4.3333,5.9167,6.4167,6.8333,7.25,7.8333,8.4167,9.25,9.8333,10.417,11.167,11.667,0,0,0,0,0
0.33333,0.83333,1.6667,2.0833,2.5833,3.25,3.8333,4.4167,5,5.5,6,7.1667,7.6667,8.3333,9.0833,9.75,10.333,10.917,11.667,0,0,0
0.83333,2.25,2.5833,2.75,3.25,3.6667,4.3333,4.9167,5.75,6.3333,6.9167,7.4167,8.0833,8.5,9.0833,9.5833,10.333,11.167,11.667,0,0,0
0.083333,0.58333,1.0833,1.6667,2.3333,2.8333,3.25,3.8333,4.4167,5.0833,5.8333,6.8333,7.25,7.8333,8.5,9,9.6667,10.583,11.083,11.167,11.583,11.667
0,0.66667,1.4167,2.4167,3.25,4.0833,5.3333,5.75,6.0833,6.9167,10.917,11.667,0,0,0,0,0,0,0,0,0,0
0.083333,0.91667,1.4167,1.9167,2.5833,3.9167,4.9167,6.5,7.4167,8.25,8.9167,10.667,11.667,0,0,0,0,0,0,0,0,0
0.25,0.91667,1.5,2.0833,2.8333,3.3333,4.4167,5.9167,7.75,10.917,0,0,0,0,0,0,0,0,0,0,0,0
0.16667,0.75,1.4167,1.9167,2.6667,3.1667,3.75,4.5833,5.5833,6.5,7.3333,8.25,8.8333,9.5833,10.167,10.667,11.167,11.667,0,0,0,0
0.5,1.75,3.1667,4.6667,5.6667,6.6667,7.75,9.25,10,10.583,11.25,11.667,0,0,0,0,0,0,0,0,0,0
0.25,0.83333,1.4167,2.0833,2.5833,3.4167,4.5,5.3333,5.9167,6.4167,7,7.5833,8.5833,9.5,9.8333,10.167,10.833,11.417,11.667,0,0,0
0.58333,1.0833,1.8333,2.3333,2.75,3.5,4.0833,4.75,5.4167,6,6.8333,7.3333,8,8.6667,9.1667,9.8333,10.5,11.25,11.667,0,0,0
0.25,1,1.8333,2.9167,3.75,4.5833,5.3333,6,7.0833,7.6667,8.25,9.1667,9.75,10.667,11.25,11.667,0,0,0,0,0,0
0.25,0.83333,1.5,2.3333,3.1667,4,4.9167,5.75,6.5,7,7.5833,8.0833,8.9167,9.4167,10,10.667,11.25,11.667,0,0,0,0
0.58333,1.1667,1.9167,2.5,3.0833,3.75,4.5,5.25,6,6.25,6.5,8,8.8333,9.4167,9.75,10.333,11.333,11.667,0,0,0,0
0.083333,0.75,1.4167,2,2.5833,3.0833,4.0833,4.5833,5.25,5.8333,6.6667,7.1667,7.6667,8.25,8.8333,9.5833,10.667,11.333,11.667,0,0,0
0.58333,1.3333,2,2.8333,3.1667,3.75,4.25,4.75,5.4167,5.75,6.3333,6.8333,7.75,8.5,9.0833,9.9167,11,0,0,0,0,0
0.16667,0.83333,1.8333,2.4167,3.0833,3.5,4.0833,4.8333,5.4167,6.1667,6.6667,7.1667,7.8333,8.4167,8.8333,9.5833,9.9167,10.75,11.25,11.667,0,0
0,0.91667,1.5,2.1667,2.6667,3.25,3.9167,4.5,5.25,5.75,6.3333,6.9167,7.5833,7.8333,0,0,0,0,0,0,0,0
0.25,1.3333,3,4.1667,4.8333,5.75,6.4167,7.1667,7.75,8.4167,9.1667,9.75,10.25,10.833,11.417,11.667,0,0,0,0,0,0
0.33333,0.83333,1.75,2.3333,2.9167,3.5833,4.0833,4.9167,6.0833,7,7.5,8.9167,9.75,11.333,11.667,0,0,0,0,0,0,0
0.25,0.91667,1.5,2.0833,2.8333,3.4167,4.0833,4.5833,5.0833,5.8333,6.6667,7.25,7.75,8.3333,8.9167,9.5833,10.25,10.917,11.583,11.667,0,0
0.083333,0.5,1.0833,1.8333,2.4167,3.1667,3.6667,4.0833,4.75,6,6.5,7,7.5833,8.1667,8.5833,9.0833,9.6667,10.25,10.833,11.333,11.667,0
0,0.91667,1.5833,2.3333,4.0833,4.5,5.1667,5.75,6.3333,6.9167,7.5,8.4167,9,9.75,10.333,10.75,11.167,11.667,0,0,0,0
0.75,1.5,2.5833,3.5,4.0833,4.75,5.25,5.8333,6.3333,6.8333,7.5,7.9167,8.5833,9.1667,9.6667,10.167,10.667,11.417,11.667,0,0,0
0.83333,1.3333,1.9167,2.5,3.25,3.8333,4.5,4.9167,5.5833,6.0833,6.5833,7.25,7.8333,9.3333,9.75,10.5,10.917,11.5,11.667,0,0,0
1,2,4.25,5.9167,6.8333,7.6667,8.0833,8.75,9.5,10,10.583,11.167,11.667,0,0,0,0,0,0,0,0,0
0.16667,0.58333,1.1667,1.75,2.9167,3.25,3.6667,4.3333,5,5.5833,6.0833,6.6667,7.6667,8,8.4167,9.25,9.9167,10.75,11.25,11.667,0,0
0.16667,1.4167,2.1667,2.6667,3.4167,4,4.9167,5.6667,6.4167,7.0833,7.75,8.3333,8.5,0,0,0,0,0,0,0,0,0
0.16667,0.66667,1.3333,1.9167,2.4167,3.0833,3.9167,4.75,5.5833,6.5833,7.3333,8.3333,9.1667,10.25,11.083,11.667,0,0,0,0,0,0
0.5,1.25,1.9167,2.5,3.1667,3.8333,4.4167,5.0833,5.6667,6.3333,6.8333,7.5,7.9167,8.4167,8.75,9.4167,10.5,10.833,11.083,11.5,11.667,0
0.083333,0.91667,1.5833,2.5,3.0833,3.8333,4.5,5.1667,5.9167,6.5833,7.1667,7.8333,8.25,8.6667,9.3333,10.333,10.583,11,11.583,11.667,0,0
0.41667,1.0833,1.5833,2.1667,2.75,3.3333,4,4.8333,5.9167,6.75,7.75,8.0833,8.5,9,9.8333,10.333,11,11.583,11.667,0,0,0
0.41667,1.5833,2.25,3.0833,3.6667,4.25,4.8333,5.25,5.75,6.1667,6.8333,7.3333,7.8333,8.3333,8.9167,9.5,10.083,10.583,11.167,11.583,11.667,0
0.25,1.25,2.25,3.25,4.0833,5.5,6.5,7.3333,8.1667,8.8333,10.083,11.333,11.667,0,0,0,0,0,0,0,0,0
1.25,1.5833,2.25,2.75,3.3333,3.8333,4.4167,5.5833,6,7.0833,11.667,0,0,0,0,0,0,0,0,0,0,0
0.083333,0.75,1.4167,2.0833,4.0833,4.8333,6,6.8333,7.6667,8.75,9.5,10.583,11.167,11.667,0,0,0,0,0,0,0,0
0.33333,0.91667,1.3333,2.0833,3.4167,4.0833,4.75,5.5833,6.25,6.8333,7.3333,7.8333,8.4167,8.9167,9.8333,10.167,10.667,11.417,11.667,0,0,0
0.75,1.1667,1.9167,2.4167,3,3.8333,4.3333,5.25,6.0833,7,7.6667,8.4167,9.0833,9.6667,10.167,10.667,11.25,11.667,0,0,0,0
0.33333,1.1667,1.9167,2.5,3.1667,3.75,4.5,5,5.5,6.1667,6.75,7.3333,7.9167,8.4167,9.0833,9.8333,10.5,11.25,11.667,0,0,0
0.16667,0.75,1.5,2.25,3,3.6667,4.6667,5.3333,5.75,6.25,6.8333,7.3333,7.75,8.25,9.3333,9.75,10.25,10.917,11.417,11.667,0,0
